[ 
  {
    "file": "game:entities/humanoid/player",
    "op": "replace",
    "path": "/client/renderer",
    "value": "KemonoPlayerShape"
  },
  {
    "file": "game:entities/humanoid/player",
    "op": "replace",
    "path": "/client/behaviors/6",
    "value": { "code": "kemonoskinnable" }
  },
  {
    "file": "game:entities/humanoid/player",
    "op": "replace",
    "path": "/server/behaviors/10",
    "value": { "code": "kemonoskinnable" }
  }
]