{
    "editor": {
        "backDropShape": "entity/humanoid/seraph-hairless",
        "allAngles": true,
        "entityTextureMode": true
    },
    "textureWidth": 48,
    "textureHeight": 48,
    "textureSizes": {
        "hair": [
            48,
            48
        ]
    },
    "textures": {
        "hair": "game:entity/humanoid/seraphskinparts/hair/lightgray"
    },
    "elements": [
        {
            "name": "Hair",
            "stepParentName": "Hair",
            "from": [
                -3.332,
                -3.2159999999999997,
                -3.2479999999999998
            ],
            "to": [
                4.207999999999998,
                6.644,
                3.132
            ],
            "autoUnwrap": false,
            "uv": [
                2.0,
                2.5
            ],
            "rotationOrigin": [
                0.37999999999999945,
                2.6999999999999997,
                0.0
            ],
            "faces": {
                "north": {
                    "texture": "#hair",
                    "uv": [
                        0.0,
                        0.0,
                        6.5,
                        8.5
                    ]
                },
                "east": {
                    "texture": "#hair",
                    "uv": [
                        18.5,
                        0.0,
                        24.0,
                        8.5
                    ]
                },
                "south": {
                    "texture": "#hair",
                    "uv": [
                        12.0,
                        0.0,
                        18.5,
                        8.5
                    ]
                },
                "west": {
                    "texture": "#hair",
                    "uv": [
                        6.5,
                        0.0,
                        12.0,
                        8.5
                    ]
                },
                "up": {
                    "texture": "#hair",
                    "uv": [
                        24.0,
                        0.0,
                        29.5,
                        6.5
                    ],
                    "rotation": 90
                },
                "down": {
                    "texture": "#hair",
                    "uv": [
                        14.0,
                        27.0,
                        25.5,
                        12.0
                    ],
                    "rotation": 90,
                    "enabled": false,
                    "autoUv": false
                }
            }
        },
        {
            "name": "Hair tile upper part",
            "stepParentName": "Hair",
            "from": [
                -3.564,
                -1.94,
                -3.48
            ],
            "to": [
                4.555999999999999,
                6.76,
                3.48
            ],
            "autoUnwrap": false,
            "uv": [
                3.0,
                9.0
            ],
            "rotationOrigin": [
                0.49599999999999955,
                6.76,
                0.0
            ],
            "faces": {
                "north": {
                    "texture": "#hair",
                    "uv": [
                        0.0,
                        10.5,
                        7.0,
                        18.0
                    ]
                },
                "east": {
                    "texture": "#hair",
                    "uv": [
                        19.5,
                        10.5,
                        25.5,
                        18.0
                    ]
                },
                "south": {
                    "texture": "#hair",
                    "uv": [
                        12.5,
                        10.5,
                        19.5,
                        18.0
                    ]
                },
                "west": {
                    "texture": "#hair",
                    "uv": [
                        6.5,
                        10.5,
                        12.5,
                        18.0
                    ]
                },
                "up": {
                    "texture": "#hair",
                    "uv": [
                        26.5,
                        10.5,
                        32.5,
                        17.5
                    ],
                    "rotation": 90
                },
                "down": {
                    "texture": "#hair",
                    "uv": [
                        39.0,
                        34.5,
                        45.0,
                        41.5
                    ],
                    "rotation": 90,
                    "enabled": false
                }
            }
        }
    ]
}