{
  "textureWidth": 64,
  "textureHeight": 64,
  "textures": {
    "headextra": "kemono:entity/horse/head/headextra"
  },
  "textureSizes": {
    "headextra": [
      64,
      64
    ]
  },
  "elements": [
    {
      "name": "HornDeer0L",
      "from": [
        1.875786155462265,
        9.118126809597015,
        2.223201096057892
      ],
      "to": [
        2.1437378227710724,
        9.993407309055328,
        2.4911529421806335
      ],
      "rotationOrigin": [
        2.0097619891166687,
        9.555767059326172,
        2.3571770191192627
      ],
      "rotationX": -34.497748705171155,
      "rotationY": -38.47107465104267,
      "rotationZ": -47.821962209721555,
      "group": "horn-deer0L",
      "faces": {
        "north": {
          "texture": "#headextra",
          "uv": [
            46.0,
            44.0,
            47.0,
            48.0
          ],
          "autoUv": false
        },
        "east": {
          "texture": "#headextra",
          "uv": [
            49.0,
            44.0,
            50.0,
            48.0
          ],
          "autoUv": false
        },
        "south": {
          "texture": "#headextra",
          "uv": [
            48.0,
            44.0,
            49.0,
            48.0
          ],
          "autoUv": false
        },
        "west": {
          "texture": "#headextra",
          "uv": [
            47.0,
            44.0,
            48.0,
            48.0
          ],
          "autoUv": false
        },
        "up": {
          "texture": "#headextra",
          "uv": [
            47.0,
            43.0,
            48.0,
            44.0
          ],
          "autoUv": false,
          "rotation": 90
        },
        "down": {
          "texture": "#headextra",
          "uv": [
            49.0,
            44.0,
            48.0,
            43.0
          ],
          "autoUv": false,
          "rotation": 270
        }
      },
      "children": [],
      "stepParentName": "b_Head"
    },
    {
      "name": "HornDeer0L.001",
      "from": [
        -0.6445551216602325,
        5.672438263893127,
        2.1195164024829865
      ],
      "to": [
        0.14895376563072205,
        8.687989592552185,
        2.913025349378586
      ],
      "rotationOrigin": [
        -0.24780067801475525,
        7.180213928222656,
        2.516270875930786
      ],
      "rotationX": 4.897906455701341,
      "rotationY": -28.460366912878463,
      "rotationZ": -73.56140373841495,
      "group": "horn-deer0L",
      "faces": {
        "north": {
          "texture": "#headextra",
          "uv": [
            35.0,
            40.0,
            39.0,
            52.0
          ],
          "autoUv": false
        },
        "east": {
          "texture": "#headextra",
          "uv": [
            47.0,
            40.0,
            51.0,
            52.0
          ],
          "autoUv": false
        },
        "south": {
          "texture": "#headextra",
          "uv": [
            43.0,
            40.0,
            47.0,
            52.0
          ],
          "autoUv": false
        },
        "west": {
          "texture": "#headextra",
          "uv": [
            39.0,
            40.0,
            43.0,
            52.0
          ],
          "autoUv": false
        },
        "up": {
          "texture": "#headextra",
          "uv": [
            39.0,
            36.0,
            43.0,
            40.0
          ],
          "autoUv": false,
          "rotation": 90
        },
        "down": {
          "texture": "#headextra",
          "uv": [
            47.0,
            40.0,
            43.0,
            36.0
          ],
          "autoUv": false,
          "rotation": 270
        }
      },
      "children": [],
      "stepParentName": "b_Head"
    },
    {
      "name": "HornDeer0L.002",
      "from": [
        1.1367097051327593,
        6.653092384338379,
        3.7327028067295913
      ],
      "to": [
        1.8122113792712327,
        9.220183372497559,
        4.408204480868065
      ],
      "rotationOrigin": [
        1.4744605422019958,
        7.936637878417969,
        4.070453643798828
      ],
      "rotationX": 79.9534567637389,
      "rotationY": 28.685585570570463,
      "rotationZ": -31.26389660488565,
      "group": "horn-deer0L",
      "faces": {
        "north": {
          "texture": "#headextra",
          "uv": [
            38.0,
            40.0,
            41.0,
            51.0
          ],
          "autoUv": false
        },
        "east": {
          "texture": "#headextra",
          "uv": [
            35.0,
            40.0,
            38.0,
            51.0
          ],
          "autoUv": false
        },
        "south": {
          "texture": "#headextra",
          "uv": [
            44.0,
            40.0,
            47.0,
            51.0
          ],
          "autoUv": false
        },
        "west": {
          "texture": "#headextra",
          "uv": [
            41.0,
            40.0,
            44.0,
            51.0
          ],
          "autoUv": false
        },
        "up": {
          "texture": "#headextra",
          "uv": [
            38.0,
            37.0,
            41.0,
            40.0
          ],
          "autoUv": false,
          "rotation": 180
        },
        "down": {
          "texture": "#headextra",
          "uv": [
            44.0,
            40.0,
            41.0,
            37.0
          ],
          "autoUv": false,
          "rotation": 180
        }
      },
      "children": [],
      "stepParentName": "b_Head"
    },
    {
      "name": "HornDeer0L.003",
      "from": [
        1.7343780585311834,
        7.850554823875427,
        5.37364991388549
      ],
      "to": [
        2.2426220587707575,
        9.646950364112854,
        5.881893794915779
      ],
      "rotationOrigin": [
        1.9885000586509705,
        8.74875259399414,
        5.627771854400635
      ],
      "rotationX": 58.13960840390238,
      "rotationY": 37.13479253615928,
      "rotationZ": 2.929446150347078,
      "group": "horn-deer0L",
      "faces": {
        "north": {
          "texture": "#headextra",
          "uv": [
            45.0,
            45.0,
            48.0,
            54.0
          ],
          "autoUv": false
        },
        "east": {
          "texture": "#headextra",
          "uv": [
            42.0,
            45.0,
            45.0,
            54.0
          ],
          "autoUv": false
        },
        "south": {
          "texture": "#headextra",
          "uv": [
            51.0,
            45.0,
            54.0,
            54.0
          ],
          "autoUv": false
        },
        "west": {
          "texture": "#headextra",
          "uv": [
            48.0,
            45.0,
            51.0,
            54.0
          ],
          "autoUv": false
        },
        "up": {
          "texture": "#headextra",
          "uv": [
            45.0,
            42.0,
            48.0,
            45.0
          ],
          "autoUv": false,
          "rotation": 180
        },
        "down": {
          "texture": "#headextra",
          "uv": [
            51.0,
            45.0,
            48.0,
            42.0
          ],
          "autoUv": false,
          "rotation": 180
        }
      },
      "children": [],
      "stepParentName": "b_Head"
    },
    {
      "name": "HornDeer0L.004",
      "from": [
        1.4150950075727833,
        8.732004582881927,
        6.480757212792052
      ],
      "to": [
        1.81716414674698,
        10.177716791629791,
        6.882826351966249
      ],
      "rotationOrigin": [
        1.6161295771598816,
        9.45486068725586,
        6.68179178237915
      ],
      "rotationX": 28.331158516802038,
      "rotationY": 28.70128817547232,
      "rotationZ": 39.674970624338286,
      "group": "horn-deer0L",
      "faces": {
        "north": {
          "texture": "#headextra",
          "uv": [
            42.0,
            42.0,
            44.0,
            51.0
          ],
          "autoUv": false
        },
        "east": {
          "texture": "#headextra",
          "uv": [
            40.0,
            42.0,
            42.0,
            51.0
          ],
          "autoUv": false
        },
        "south": {
          "texture": "#headextra",
          "uv": [
            46.0,
            42.0,
            48.0,
            51.0
          ],
          "autoUv": false
        },
        "west": {
          "texture": "#headextra",
          "uv": [
            44.0,
            42.0,
            46.0,
            51.0
          ],
          "autoUv": false
        },
        "up": {
          "texture": "#headextra",
          "uv": [
            42.0,
            40.0,
            44.0,
            42.0
          ],
          "autoUv": false,
          "rotation": 180
        },
        "down": {
          "texture": "#headextra",
          "uv": [
            46.0,
            42.0,
            44.0,
            40.0
          ],
          "autoUv": false,
          "rotation": 180
        }
      },
      "children": [],
      "stepParentName": "b_Head"
    },
    {
      "name": "HornDeer0L.005",
      "from": [
        0.7874662955365361,
        9.525600910186768,
        7.051490702208062
      ],
      "to": [
        1.106721274081689,
        10.584468364715576,
        7.370745740357856
      ],
      "rotationOrigin": [
        0.9470937848091125,
        10.055034637451172,
        7.211118221282959
      ],
      "rotationX": 9.665966746412508,
      "rotationY": 12.260025635632807,
      "rotationZ": 47.89862083787119,
      "group": "horn-deer0L",
      "faces": {
        "north": {
          "texture": "#headextra",
          "uv": [
            40.0,
            41.0,
            42.0,
            47.0
          ],
          "autoUv": false
        },
        "east": {
          "texture": "#headextra",
          "uv": [
            38.0,
            41.0,
            40.0,
            47.0
          ],
          "autoUv": false
        },
        "south": {
          "texture": "#headextra",
          "uv": [
            44.0,
            41.0,
            46.0,
            47.0
          ],
          "autoUv": false
        },
        "west": {
          "texture": "#headextra",
          "uv": [
            42.0,
            41.0,
            44.0,
            47.0
          ],
          "autoUv": false
        },
        "up": {
          "texture": "#headextra",
          "uv": [
            40.0,
            39.0,
            42.0,
            41.0
          ],
          "autoUv": false,
          "rotation": 180
        },
        "down": {
          "texture": "#headextra",
          "uv": [
            44.0,
            41.0,
            42.0,
            39.0
          ],
          "autoUv": false,
          "rotation": 180
        }
      },
      "children": [],
      "stepParentName": "b_Head"
    },
    {
      "name": "HornDeer0L.006",
      "from": [
        0.1804988553613046,
        10.228708863258362,
        7.205369213768801
      ],
      "to": [
        0.42826591228548505,
        11.24194848537445,
        7.4531362259895
      ],
      "rotationOrigin": [
        0.3043823838233948,
        10.735328674316406,
        7.32925271987915
      ],
      "rotationX": 2.8684871388915374,
      "rotationY": -7.678993853643161,
      "rotationZ": 38.0962270392032,
      "group": "horn-deer0L",
      "faces": {
        "north": {
          "texture": "#headextra",
          "uv": [
            47.0,
            46.0,
            49.0,
            55.0
          ],
          "autoUv": false
        },
        "east": {
          "texture": "#headextra",
          "uv": [
            45.0,
            46.0,
            47.0,
            55.0
          ],
          "autoUv": false
        },
        "south": {
          "texture": "#headextra",
          "uv": [
            51.0,
            46.0,
            53.0,
            55.0
          ],
          "autoUv": false
        },
        "west": {
          "texture": "#headextra",
          "uv": [
            49.0,
            46.0,
            51.0,
            55.0
          ],
          "autoUv": false
        },
        "up": {
          "texture": "#headextra",
          "uv": [
            47.0,
            44.0,
            49.0,
            46.0
          ],
          "autoUv": false,
          "rotation": 180
        },
        "down": {
          "texture": "#headextra",
          "uv": [
            51.0,
            46.0,
            49.0,
            44.0
          ],
          "autoUv": false,
          "rotation": 180
        }
      },
      "children": [],
      "stepParentName": "b_Head"
    },
    {
      "name": "HornDeer0L.007",
      "from": [
        0.7123688757419586,
        7.3820589780807495,
        2.3539687991142273
      ],
      "to": [
        1.2494387328624725,
        8.732221722602844,
        2.891038715839386
      ],
      "rotationOrigin": [
        0.9809038043022156,
        8.057140350341797,
        2.6225037574768066
      ],
      "rotationX": -44.777169745662,
      "rotationY": -31.972914636962578,
      "rotationZ": -40.61848954118926,
      "group": "horn-deer0L",
      "faces": {
        "north": {
          "texture": "#headextra",
          "uv": [
            38.0,
            43.0,
            40.0,
            49.0
          ],
          "autoUv": false
        },
        "east": {
          "texture": "#headextra",
          "uv": [
            44.0,
            43.0,
            46.0,
            49.0
          ],
          "autoUv": false
        },
        "south": {
          "texture": "#headextra",
          "uv": [
            42.0,
            43.0,
            44.0,
            49.0
          ],
          "autoUv": false
        },
        "west": {
          "texture": "#headextra",
          "uv": [
            40.0,
            43.0,
            42.0,
            49.0
          ],
          "autoUv": false
        },
        "up": {
          "texture": "#headextra",
          "uv": [
            40.0,
            41.0,
            42.0,
            43.0
          ],
          "autoUv": false,
          "rotation": 90
        },
        "down": {
          "texture": "#headextra",
          "uv": [
            44.0,
            43.0,
            42.0,
            41.0
          ],
          "autoUv": false,
          "rotation": 270
        }
      },
      "children": [],
      "stepParentName": "b_Head"
    },
    {
      "name": "HornDeer0L.008",
      "from": [
        1.3637413531541824,
        8.397133648395538,
        2.1713962703943253
      ],
      "to": [
        1.782301351428032,
        9.40962141752243,
        2.5899562686681747
      ],
      "rotationOrigin": [
        1.5730213522911072,
        8.903377532958984,
        2.38067626953125
      ],
      "rotationX": -35.68720565856136,
      "rotationY": -37.43889987876493,
      "rotationZ": -42.5468261137077,
      "group": "horn-deer0L",
      "faces": {
        "north": {
          "texture": "#headextra",
          "uv": [
            45.0,
            47.0,
            47.0,
            53.0
          ],
          "autoUv": false
        },
        "east": {
          "texture": "#headextra",
          "uv": [
            51.0,
            47.0,
            53.0,
            53.0
          ],
          "autoUv": false
        },
        "south": {
          "texture": "#headextra",
          "uv": [
            49.0,
            47.0,
            51.0,
            53.0
          ],
          "autoUv": false
        },
        "west": {
          "texture": "#headextra",
          "uv": [
            47.0,
            47.0,
            49.0,
            53.0
          ],
          "autoUv": false
        },
        "up": {
          "texture": "#headextra",
          "uv": [
            47.0,
            45.0,
            49.0,
            47.0
          ],
          "autoUv": false,
          "rotation": 90
        },
        "down": {
          "texture": "#headextra",
          "uv": [
            51.0,
            47.0,
            49.0,
            45.0
          ],
          "autoUv": false,
          "rotation": 270
        }
      },
      "children": [],
      "stepParentName": "b_Head"
    },
    {
      "name": "HornDeer0L.009",
      "from": [
        -2.192993402481079,
        4.334669589996338,
        1.0523203313350677
      ],
      "to": [
        -1.3010846376419067,
        7.231847286224365,
        1.9442292749881744
      ],
      "rotationOrigin": [
        -1.747039020061493,
        5.783258438110352,
        1.498274803161621
      ],
      "rotationX": 8.54843680762441,
      "rotationY": -29.032207425664854,
      "rotationZ": -21.71322089034202,
      "group": "horn-deer0L",
      "faces": {
        "north": {
          "texture": "#headextra",
          "uv": [
            36.0,
            42.0,
            40.0,
            52.0
          ],
          "autoUv": false
        },
        "east": {
          "texture": "#headextra",
          "uv": [
            48.0,
            42.0,
            52.0,
            52.0
          ],
          "autoUv": false
        },
        "south": {
          "texture": "#headextra",
          "uv": [
            44.0,
            42.0,
            48.0,
            52.0
          ],
          "autoUv": false
        },
        "west": {
          "texture": "#headextra",
          "uv": [
            40.0,
            42.0,
            44.0,
            52.0
          ],
          "autoUv": false
        },
        "up": {
          "texture": "#headextra",
          "uv": [
            40.0,
            38.0,
            44.0,
            42.0
          ],
          "autoUv": false,
          "rotation": 90
        },
        "down": {
          "texture": "#headextra",
          "uv": [
            48.0,
            42.0,
            44.0,
            38.0
          ],
          "autoUv": false,
          "rotation": 270
        }
      },
      "children": [],
      "stepParentName": "b_Head"
    },
    {
      "name": "HornDeer0L.010",
      "from": [
        2.166507055115162,
        8.835193574428558,
        5.681934882950247
      ],
      "to": [
        2.632335732627453,
        10.006259977817535,
        6.147763679671823
      ],
      "rotationOrigin": [
        2.3994213938713074,
        9.420726776123047,
        5.914849281311035
      ],
      "rotationX": -18.724326694449854,
      "rotationY": -19.460289822802483,
      "rotationZ": -42.40693700931667,
      "group": "horn-deer0L",
      "faces": {
        "north": {
          "texture": "#headextra",
          "uv": [
            40.0,
            49.0,
            42.0,
            55.0
          ],
          "autoUv": false
        },
        "east": {
          "texture": "#headextra",
          "uv": [
            38.0,
            49.0,
            40.0,
            55.0
          ],
          "autoUv": false
        },
        "south": {
          "texture": "#headextra",
          "uv": [
            44.0,
            49.0,
            46.0,
            55.0
          ],
          "autoUv": false
        },
        "west": {
          "texture": "#headextra",
          "uv": [
            42.0,
            49.0,
            44.0,
            55.0
          ],
          "autoUv": false
        },
        "up": {
          "texture": "#headextra",
          "uv": [
            40.0,
            47.0,
            42.0,
            49.0
          ],
          "autoUv": false,
          "rotation": 180
        },
        "down": {
          "texture": "#headextra",
          "uv": [
            44.0,
            49.0,
            42.0,
            47.0
          ],
          "autoUv": false,
          "rotation": 180
        }
      },
      "children": [],
      "stepParentName": "b_Head"
    },
    {
      "name": "HornDeer0L.011",
      "from": [
        2.7750661293793764,
        9.68988186120987,
        5.732127733044727
      ],
      "to": [
        3.1381050427626525,
        10.69872897863388,
        6.095166616625683
      ],
      "rotationOrigin": [
        2.9565855860710144,
        10.194305419921875,
        5.913647174835205
      ],
      "rotationX": -12.050935615892145,
      "rotationY": -22.985208727020787,
      "rotationZ": -30.761061493283897,
      "group": "horn-deer0L",
      "faces": {
        "north": {
          "texture": "#headextra",
          "uv": [
            46.0,
            46.0,
            48.0,
            52.0
          ],
          "autoUv": false
        },
        "east": {
          "texture": "#headextra",
          "uv": [
            44.0,
            46.0,
            46.0,
            52.0
          ],
          "autoUv": false
        },
        "south": {
          "texture": "#headextra",
          "uv": [
            50.0,
            46.0,
            52.0,
            52.0
          ],
          "autoUv": false
        },
        "west": {
          "texture": "#headextra",
          "uv": [
            48.0,
            46.0,
            50.0,
            52.0
          ],
          "autoUv": false
        },
        "up": {
          "texture": "#headextra",
          "uv": [
            46.0,
            44.0,
            48.0,
            46.0
          ],
          "autoUv": false,
          "rotation": 180
        },
        "down": {
          "texture": "#headextra",
          "uv": [
            50.0,
            46.0,
            48.0,
            44.0
          ],
          "autoUv": false,
          "rotation": 180
        }
      },
      "children": [],
      "stepParentName": "b_Head"
    },
    {
      "name": "HornDeer0L.012",
      "from": [
        3.207769530402482,
        10.450795888900757,
        5.8251791322100726
      ],
      "to": [
        3.440178138626754,
        11.532060861587524,
        6.05758759142274
      ],
      "rotationOrigin": [
        3.323973834514618,
        10.99142837524414,
        5.941383361816406
      ],
      "rotationX": -6.305684429495486,
      "rotationY": -25.942586722535218,
      "rotationZ": -26.984260580401155,
      "group": "horn-deer0L",
      "faces": {
        "north": {
          "texture": "#headextra",
          "uv": [
            49.0,
            44.0,
            50.0,
            50.0
          ],
          "autoUv": false
        },
        "east": {
          "texture": "#headextra",
          "uv": [
            48.0,
            44.0,
            49.0,
            50.0
          ],
          "autoUv": false
        },
        "south": {
          "texture": "#headextra",
          "uv": [
            51.0,
            44.0,
            52.0,
            50.0
          ],
          "autoUv": false
        },
        "west": {
          "texture": "#headextra",
          "uv": [
            50.0,
            44.0,
            51.0,
            50.0
          ],
          "autoUv": false
        },
        "up": {
          "texture": "#headextra",
          "uv": [
            49.0,
            43.0,
            50.0,
            44.0
          ],
          "autoUv": false,
          "rotation": 180
        },
        "down": {
          "texture": "#headextra",
          "uv": [
            51.0,
            44.0,
            50.0,
            43.0
          ],
          "autoUv": false,
          "rotation": 180
        }
      },
      "children": [],
      "stepParentName": "b_Head"
    },
    {
      "name": "HornDeer0L.013",
      "from": [
        1.3604935998329486,
        9.762085676193237,
        6.896622895658907
      ],
      "to": [
        1.7136444454780255,
        10.6498863697052,
        7.249773741303984
      ],
      "rotationOrigin": [
        1.537069022655487,
        10.205986022949219,
        7.073198318481445
      ],
      "rotationX": 24.431880359269922,
      "rotationY": 30.49528517230036,
      "rotationZ": -20.552886156025448,
      "group": "horn-deer0L",
      "faces": {
        "north": {
          "texture": "#headextra",
          "uv": [
            44.0,
            43.0,
            46.0,
            49.0
          ],
          "autoUv": false
        },
        "east": {
          "texture": "#headextra",
          "uv": [
            42.0,
            43.0,
            44.0,
            49.0
          ],
          "autoUv": false
        },
        "south": {
          "texture": "#headextra",
          "uv": [
            40.0,
            43.0,
            42.0,
            49.0
          ],
          "autoUv": false
        },
        "west": {
          "texture": "#headextra",
          "uv": [
            46.0,
            43.0,
            48.0,
            49.0
          ],
          "autoUv": false
        },
        "up": {
          "texture": "#headextra",
          "uv": [
            42.0,
            41.0,
            44.0,
            43.0
          ],
          "autoUv": false,
          "rotation": 270
        },
        "down": {
          "texture": "#headextra",
          "uv": [
            46.0,
            43.0,
            44.0,
            41.0
          ],
          "autoUv": false,
          "rotation": 90
        }
      },
      "children": [],
      "stepParentName": "b_Head"
    },
    {
      "name": "HornDeer0L.014",
      "from": [
        1.5629721014596618,
        10.47520661354065,
        7.07986460913197
      ],
      "to": [
        1.8381966025732361,
        11.169904470443726,
        7.355089080443225
      ],
      "rotationOrigin": [
        1.700584352016449,
        10.822555541992188,
        7.217476844787598
      ],
      "rotationX": 14.154216384943057,
      "rotationY": 33.627312812439314,
      "rotationZ": -7.967580445133601,
      "group": "horn-deer0L",
      "faces": {
        "north": {
          "texture": "#headextra",
          "uv": [
            48.0,
            46.0,
            50.0,
            52.0
          ],
          "autoUv": false
        },
        "east": {
          "texture": "#headextra",
          "uv": [
            46.0,
            46.0,
            48.0,
            52.0
          ],
          "autoUv": false
        },
        "south": {
          "texture": "#headextra",
          "uv": [
            44.0,
            46.0,
            46.0,
            52.0
          ],
          "autoUv": false
        },
        "west": {
          "texture": "#headextra",
          "uv": [
            50.0,
            46.0,
            52.0,
            52.0
          ],
          "autoUv": false
        },
        "up": {
          "texture": "#headextra",
          "uv": [
            46.0,
            44.0,
            48.0,
            46.0
          ],
          "autoUv": false,
          "rotation": 270
        },
        "down": {
          "texture": "#headextra",
          "uv": [
            50.0,
            46.0,
            48.0,
            44.0
          ],
          "autoUv": false,
          "rotation": 90
        }
      },
      "children": [],
      "stepParentName": "b_Head"
    },
    {
      "name": "HornDeer0L.015",
      "from": [
        1.642066381620685,
        10.977868884801865,
        7.228638797747418
      ],
      "to": [
        1.8182582634217344,
        11.752432018518448,
        7.404830783856586
      ],
      "rotationOrigin": [
        1.7301623225212097,
        11.365150451660156,
        7.316734790802002
      ],
      "rotationX": 12.47981173161371,
      "rotationY": 33.67467334414418,
      "rotationZ": -1.0329473307058938,
      "group": "horn-deer0L",
      "faces": {
        "north": {
          "texture": "#headextra",
          "uv": [
            50.0,
            44.0,
            51.0,
            50.0
          ],
          "autoUv": false
        },
        "east": {
          "texture": "#headextra",
          "uv": [
            49.0,
            44.0,
            50.0,
            50.0
          ],
          "autoUv": false
        },
        "south": {
          "texture": "#headextra",
          "uv": [
            48.0,
            44.0,
            49.0,
            50.0
          ],
          "autoUv": false
        },
        "west": {
          "texture": "#headextra",
          "uv": [
            51.0,
            44.0,
            52.0,
            50.0
          ],
          "autoUv": false
        },
        "up": {
          "texture": "#headextra",
          "uv": [
            49.0,
            43.0,
            50.0,
            44.0
          ],
          "autoUv": false,
          "rotation": 270
        },
        "down": {
          "texture": "#headextra",
          "uv": [
            51.0,
            44.0,
            50.0,
            43.0
          ],
          "autoUv": false,
          "rotation": 90
        }
      },
      "children": [],
      "stepParentName": "b_Head"
    },
    {
      "name": "HornDeer0R",
      "from": [
        1.875786155462265,
        9.118126809597015,
        -2.4911529421806335
      ],
      "to": [
        2.1437378227710724,
        9.993407309055328,
        -2.223201096057892
      ],
      "rotationOrigin": [
        2.0097619891166687,
        9.555767059326172,
        -2.3571770191192627
      ],
      "rotationX": 34.497748705171155,
      "rotationY": 38.47107465104267,
      "rotationZ": -47.821958794626966,
      "group": "horn-deer0R",
      "faces": {
        "north": {
          "texture": "#headextra",
          "uv": [
            49.0,
            44.0,
            48.0,
            48.0
          ],
          "autoUv": false
        },
        "east": {
          "texture": "#headextra",
          "uv": [
            50.0,
            44.0,
            49.0,
            48.0
          ],
          "autoUv": false
        },
        "south": {
          "texture": "#headextra",
          "uv": [
            47.0,
            44.0,
            46.0,
            48.0
          ],
          "autoUv": false
        },
        "west": {
          "texture": "#headextra",
          "uv": [
            48.0,
            44.0,
            47.0,
            48.0
          ],
          "autoUv": false
        },
        "up": {
          "texture": "#headextra",
          "uv": [
            48.0,
            43.0,
            47.0,
            44.0
          ],
          "autoUv": false,
          "rotation": 90
        },
        "down": {
          "texture": "#headextra",
          "uv": [
            48.0,
            44.0,
            49.0,
            43.0
          ],
          "autoUv": false,
          "rotation": 270
        }
      },
      "children": [],
      "stepParentName": "b_Head"
    },
    {
      "name": "HornDeer0R.001",
      "from": [
        -0.6445551216602325,
        5.672438263893127,
        -2.913025349378586
      ],
      "to": [
        0.14895376563072205,
        8.687989592552185,
        -2.1195164024829865
      ],
      "rotationOrigin": [
        -0.24780067801475525,
        7.180213928222656,
        -2.516270875930786
      ],
      "rotationX": -4.897903894380402,
      "rotationY": 28.460370327973045,
      "rotationZ": -73.56140373841495,
      "group": "horn-deer0R",
      "faces": {
        "north": {
          "texture": "#headextra",
          "uv": [
            47.0,
            40.0,
            43.0,
            52.0
          ],
          "autoUv": false
        },
        "east": {
          "texture": "#headextra",
          "uv": [
            51.0,
            40.0,
            47.0,
            52.0
          ],
          "autoUv": false
        },
        "south": {
          "texture": "#headextra",
          "uv": [
            39.0,
            40.0,
            35.0,
            52.0
          ],
          "autoUv": false
        },
        "west": {
          "texture": "#headextra",
          "uv": [
            43.0,
            40.0,
            39.0,
            52.0
          ],
          "autoUv": false
        },
        "up": {
          "texture": "#headextra",
          "uv": [
            43.0,
            36.0,
            39.0,
            40.0
          ],
          "autoUv": false,
          "rotation": 90
        },
        "down": {
          "texture": "#headextra",
          "uv": [
            43.0,
            40.0,
            47.0,
            36.0
          ],
          "autoUv": false,
          "rotation": 270
        }
      },
      "children": [],
      "stepParentName": "b_Head"
    },
    {
      "name": "HornDeer0R.002",
      "from": [
        1.1367097051327593,
        6.653092384338379,
        -4.408204480868065
      ],
      "to": [
        1.8122113792712327,
        9.220183372497559,
        -3.7327028067295913
      ],
      "rotationOrigin": [
        1.4744605422019958,
        7.936637878417969,
        -4.070453643798828
      ],
      "rotationX": -79.95344310336056,
      "rotationY": -28.68559240075963,
      "rotationZ": -31.26388294450731,
      "group": "horn-deer0R",
      "faces": {
        "north": {
          "texture": "#headextra",
          "uv": [
            47.0,
            40.0,
            44.0,
            51.0
          ],
          "autoUv": false
        },
        "east": {
          "texture": "#headextra",
          "uv": [
            38.0,
            40.0,
            35.0,
            51.0
          ],
          "autoUv": false
        },
        "south": {
          "texture": "#headextra",
          "uv": [
            41.0,
            40.0,
            38.0,
            51.0
          ],
          "autoUv": false
        },
        "west": {
          "texture": "#headextra",
          "uv": [
            44.0,
            40.0,
            41.0,
            51.0
          ],
          "autoUv": false
        },
        "up": {
          "texture": "#headextra",
          "uv": [
            41.0,
            37.0,
            38.0,
            40.0
          ],
          "autoUv": false
        },
        "down": {
          "texture": "#headextra",
          "uv": [
            41.0,
            40.0,
            44.0,
            37.0
          ],
          "autoUv": false
        }
      },
      "children": [],
      "stepParentName": "b_Head"
    },
    {
      "name": "HornDeer0R.003",
      "from": [
        1.7343780585311834,
        7.850554823875427,
        -5.881893794915779
      ],
      "to": [
        2.2426220587707575,
        9.646950364112854,
        -5.37364991388549
      ],
      "rotationOrigin": [
        1.9885000586509705,
        8.74875259399414,
        -5.627771854400635
      ],
      "rotationX": -58.13961523409155,
      "rotationY": -37.13479253615928,
      "rotationZ": 2.9294423083656698,
      "group": "horn-deer0R",
      "faces": {
        "north": {
          "texture": "#headextra",
          "uv": [
            54.0,
            45.0,
            51.0,
            54.0
          ],
          "autoUv": false
        },
        "east": {
          "texture": "#headextra",
          "uv": [
            45.0,
            45.0,
            42.0,
            54.0
          ],
          "autoUv": false
        },
        "south": {
          "texture": "#headextra",
          "uv": [
            48.0,
            45.0,
            45.0,
            54.0
          ],
          "autoUv": false
        },
        "west": {
          "texture": "#headextra",
          "uv": [
            51.0,
            45.0,
            48.0,
            54.0
          ],
          "autoUv": false
        },
        "up": {
          "texture": "#headextra",
          "uv": [
            48.0,
            42.0,
            45.0,
            45.0
          ],
          "autoUv": false
        },
        "down": {
          "texture": "#headextra",
          "uv": [
            48.0,
            45.0,
            51.0,
            42.0
          ],
          "autoUv": false
        }
      },
      "children": [],
      "stepParentName": "b_Head"
    },
    {
      "name": "HornDeer0R.004",
      "from": [
        1.4150950075727833,
        8.732004582881927,
        -6.882826351966249
      ],
      "to": [
        1.81716414674698,
        10.177716791629791,
        -6.480757212792052
      ],
      "rotationOrigin": [
        1.6161295771598816,
        9.45486068725586,
        -6.68179178237915
      ],
      "rotationX": -28.331158516802038,
      "rotationY": -28.70128817547232,
      "rotationZ": 39.674970624338286,
      "group": "horn-deer0R",
      "faces": {
        "north": {
          "texture": "#headextra",
          "uv": [
            48.0,
            42.0,
            46.0,
            51.0
          ],
          "autoUv": false
        },
        "east": {
          "texture": "#headextra",
          "uv": [
            42.0,
            42.0,
            40.0,
            51.0
          ],
          "autoUv": false
        },
        "south": {
          "texture": "#headextra",
          "uv": [
            44.0,
            42.0,
            42.0,
            51.0
          ],
          "autoUv": false
        },
        "west": {
          "texture": "#headextra",
          "uv": [
            46.0,
            42.0,
            44.0,
            51.0
          ],
          "autoUv": false
        },
        "up": {
          "texture": "#headextra",
          "uv": [
            44.0,
            40.0,
            42.0,
            42.0
          ],
          "autoUv": false
        },
        "down": {
          "texture": "#headextra",
          "uv": [
            44.0,
            42.0,
            46.0,
            40.0
          ],
          "autoUv": false
        }
      },
      "children": [],
      "stepParentName": "b_Head"
    },
    {
      "name": "HornDeer0R.005",
      "from": [
        0.7874662955365361,
        9.525600910186768,
        -7.370745740357856
      ],
      "to": [
        1.106721274081689,
        10.584468364715576,
        -7.051490702208062
      ],
      "rotationOrigin": [
        0.9470937848091125,
        10.055034637451172,
        -7.211118221282959
      ],
      "rotationX": -9.665965892638862,
      "rotationY": -12.260026489406455,
      "rotationZ": 47.89862083787119,
      "group": "horn-deer0R",
      "faces": {
        "north": {
          "texture": "#headextra",
          "uv": [
            46.0,
            41.0,
            44.0,
            47.0
          ],
          "autoUv": false
        },
        "east": {
          "texture": "#headextra",
          "uv": [
            40.0,
            41.0,
            38.0,
            47.0
          ],
          "autoUv": false
        },
        "south": {
          "texture": "#headextra",
          "uv": [
            42.0,
            41.0,
            40.0,
            47.0
          ],
          "autoUv": false
        },
        "west": {
          "texture": "#headextra",
          "uv": [
            44.0,
            41.0,
            42.0,
            47.0
          ],
          "autoUv": false
        },
        "up": {
          "texture": "#headextra",
          "uv": [
            42.0,
            39.0,
            40.0,
            41.0
          ],
          "autoUv": false
        },
        "down": {
          "texture": "#headextra",
          "uv": [
            42.0,
            41.0,
            44.0,
            39.0
          ],
          "autoUv": false
        }
      },
      "children": [],
      "stepParentName": "b_Head"
    },
    {
      "name": "HornDeer0R.006",
      "from": [
        0.18049885929912846,
        10.228708863258362,
        -7.4531362220516755
      ],
      "to": [
        0.4282659083476612,
        11.24194848537445,
        -7.205369217706625
      ],
      "rotationOrigin": [
        0.3043823838233948,
        10.735328674316406,
        -7.32925271987915
      ],
      "rotationX": -2.868489700212476,
      "rotationY": 7.678987023453991,
      "rotationZ": 38.09623045429778,
      "group": "horn-deer0R",
      "faces": {
        "north": {
          "texture": "#headextra",
          "uv": [
            53.0,
            46.0,
            51.0,
            55.0
          ],
          "autoUv": false
        },
        "east": {
          "texture": "#headextra",
          "uv": [
            47.0,
            46.0,
            45.0,
            55.0
          ],
          "autoUv": false
        },
        "south": {
          "texture": "#headextra",
          "uv": [
            49.0,
            46.0,
            47.0,
            55.0
          ],
          "autoUv": false
        },
        "west": {
          "texture": "#headextra",
          "uv": [
            51.0,
            46.0,
            49.0,
            55.0
          ],
          "autoUv": false
        },
        "up": {
          "texture": "#headextra",
          "uv": [
            49.0,
            44.0,
            47.0,
            46.0
          ],
          "autoUv": false
        },
        "down": {
          "texture": "#headextra",
          "uv": [
            49.0,
            46.0,
            51.0,
            44.0
          ],
          "autoUv": false
        }
      },
      "children": [],
      "stepParentName": "b_Head"
    },
    {
      "name": "HornDeer0R.007",
      "from": [
        0.7123688757419586,
        7.3820589780807495,
        -2.891038715839386
      ],
      "to": [
        1.2494387328624725,
        8.732221722602844,
        -2.3539687991142273
      ],
      "rotationOrigin": [
        0.9809038043022156,
        8.057140350341797,
        -2.6225037574768066
      ],
      "rotationX": 44.777162915472836,
      "rotationY": 31.972914636962578,
      "rotationZ": -40.61848612609468,
      "group": "horn-deer0R",
      "faces": {
        "north": {
          "texture": "#headextra",
          "uv": [
            44.0,
            43.0,
            42.0,
            49.0
          ],
          "autoUv": false
        },
        "east": {
          "texture": "#headextra",
          "uv": [
            46.0,
            43.0,
            44.0,
            49.0
          ],
          "autoUv": false
        },
        "south": {
          "texture": "#headextra",
          "uv": [
            40.0,
            43.0,
            38.0,
            49.0
          ],
          "autoUv": false
        },
        "west": {
          "texture": "#headextra",
          "uv": [
            42.0,
            43.0,
            40.0,
            49.0
          ],
          "autoUv": false
        },
        "up": {
          "texture": "#headextra",
          "uv": [
            42.0,
            41.0,
            40.0,
            43.0
          ],
          "autoUv": false,
          "rotation": 90
        },
        "down": {
          "texture": "#headextra",
          "uv": [
            42.0,
            43.0,
            44.0,
            41.0
          ],
          "autoUv": false,
          "rotation": 270
        }
      },
      "children": [],
      "stepParentName": "b_Head"
    },
    {
      "name": "HornDeer0R.008",
      "from": [
        1.3637413531541824,
        8.397133648395538,
        -2.5899562686681747
      ],
      "to": [
        1.782301351428032,
        9.40962141752243,
        -2.1713962703943253
      ],
      "rotationOrigin": [
        1.5730213522911072,
        8.903377532958984,
        -2.38067626953125
      ],
      "rotationX": 35.68720565856136,
      "rotationY": 37.43889987876493,
      "rotationZ": -42.5468261137077,
      "group": "horn-deer0R",
      "faces": {
        "north": {
          "texture": "#headextra",
          "uv": [
            51.0,
            47.0,
            49.0,
            53.0
          ],
          "autoUv": false
        },
        "east": {
          "texture": "#headextra",
          "uv": [
            53.0,
            47.0,
            51.0,
            53.0
          ],
          "autoUv": false
        },
        "south": {
          "texture": "#headextra",
          "uv": [
            47.0,
            47.0,
            45.0,
            53.0
          ],
          "autoUv": false
        },
        "west": {
          "texture": "#headextra",
          "uv": [
            49.0,
            47.0,
            47.0,
            53.0
          ],
          "autoUv": false
        },
        "up": {
          "texture": "#headextra",
          "uv": [
            49.0,
            45.0,
            47.0,
            47.0
          ],
          "autoUv": false,
          "rotation": 90
        },
        "down": {
          "texture": "#headextra",
          "uv": [
            49.0,
            47.0,
            51.0,
            45.0
          ],
          "autoUv": false,
          "rotation": 270
        }
      },
      "children": [],
      "stepParentName": "b_Head"
    },
    {
      "name": "HornDeer0R.009",
      "from": [
        -2.192993402481079,
        4.334669589996338,
        -1.9442292749881744
      ],
      "to": [
        -1.3010846376419067,
        7.231847286224365,
        -1.0523203313350677
      ],
      "rotationOrigin": [
        -1.747039020061493,
        5.783258438110352,
        -1.498274803161621
      ],
      "rotationX": -8.548433392529825,
      "rotationY": 29.032207425664854,
      "rotationZ": -21.713226012983895,
      "group": "horn-deer0R",
      "faces": {
        "north": {
          "texture": "#headextra",
          "uv": [
            48.0,
            42.0,
            44.0,
            52.0
          ],
          "autoUv": false
        },
        "east": {
          "texture": "#headextra",
          "uv": [
            52.0,
            42.0,
            48.0,
            52.0
          ],
          "autoUv": false
        },
        "south": {
          "texture": "#headextra",
          "uv": [
            40.0,
            42.0,
            36.0,
            52.0
          ],
          "autoUv": false
        },
        "west": {
          "texture": "#headextra",
          "uv": [
            44.0,
            42.0,
            40.0,
            52.0
          ],
          "autoUv": false
        },
        "up": {
          "texture": "#headextra",
          "uv": [
            44.0,
            38.0,
            40.0,
            42.0
          ],
          "autoUv": false,
          "rotation": 90
        },
        "down": {
          "texture": "#headextra",
          "uv": [
            44.0,
            42.0,
            48.0,
            38.0
          ],
          "autoUv": false,
          "rotation": 270
        }
      },
      "children": [],
      "stepParentName": "b_Head"
    },
    {
      "name": "HornDeer0R.010",
      "from": [
        2.1665070625186966,
        8.835193574428558,
        -6.147763672268289
      ],
      "to": [
        2.632335725223918,
        10.006259977817535,
        -5.681934890353781
      ],
      "rotationOrigin": [
        2.3994213938713074,
        9.420726776123047,
        -5.914849281311035
      ],
      "rotationX": 18.72433181709173,
      "rotationY": 19.460291530349775,
      "rotationZ": -42.40693700931667,
      "group": "horn-deer0R",
      "faces": {
        "north": {
          "texture": "#headextra",
          "uv": [
            46.0,
            49.0,
            44.0,
            55.0
          ],
          "autoUv": false
        },
        "east": {
          "texture": "#headextra",
          "uv": [
            40.0,
            49.0,
            38.0,
            55.0
          ],
          "autoUv": false
        },
        "south": {
          "texture": "#headextra",
          "uv": [
            42.0,
            49.0,
            40.0,
            55.0
          ],
          "autoUv": false
        },
        "west": {
          "texture": "#headextra",
          "uv": [
            44.0,
            49.0,
            42.0,
            55.0
          ],
          "autoUv": false
        },
        "up": {
          "texture": "#headextra",
          "uv": [
            42.0,
            47.0,
            40.0,
            49.0
          ],
          "autoUv": false
        },
        "down": {
          "texture": "#headextra",
          "uv": [
            42.0,
            49.0,
            44.0,
            47.0
          ],
          "autoUv": false
        }
      },
      "children": [],
      "stepParentName": "b_Head"
    },
    {
      "name": "HornDeer0R.011",
      "from": [
        2.7750661351492454,
        9.68988186120987,
        -6.095166610855813
      ],
      "to": [
        3.1381050369927834,
        10.69872897863388,
        -5.732127738814597
      ],
      "rotationOrigin": [
        2.9565855860710144,
        10.194305419921875,
        -5.913647174835205
      ],
      "rotationX": 12.050933908344854,
      "rotationY": 22.985213849662664,
      "rotationZ": -30.761068323473065,
      "group": "horn-deer0R",
      "faces": {
        "north": {
          "texture": "#headextra",
          "uv": [
            52.0,
            46.0,
            50.0,
            52.0
          ],
          "autoUv": false
        },
        "east": {
          "texture": "#headextra",
          "uv": [
            46.0,
            46.0,
            44.0,
            52.0
          ],
          "autoUv": false
        },
        "south": {
          "texture": "#headextra",
          "uv": [
            48.0,
            46.0,
            46.0,
            52.0
          ],
          "autoUv": false
        },
        "west": {
          "texture": "#headextra",
          "uv": [
            50.0,
            46.0,
            48.0,
            52.0
          ],
          "autoUv": false
        },
        "up": {
          "texture": "#headextra",
          "uv": [
            48.0,
            44.0,
            46.0,
            46.0
          ],
          "autoUv": false
        },
        "down": {
          "texture": "#headextra",
          "uv": [
            48.0,
            46.0,
            50.0,
            44.0
          ],
          "autoUv": false
        }
      },
      "children": [],
      "stepParentName": "b_Head"
    },
    {
      "name": "HornDeer0R.012",
      "from": [
        3.2077695340962085,
        10.450795888900757,
        -6.094015085592781
      ],
      "to": [
        3.440178134933028,
        11.532060861587524,
        -5.861606633767571
      ],
      "rotationOrigin": [
        3.323973834514618,
        10.99142837524414,
        -5.977810859680176
      ],
      "rotationX": 6.305680160627254,
      "rotationY": 25.942557694231247,
      "rotationZ": -26.984258872853864,
      "group": "horn-deer0R",
      "faces": {
        "north": {
          "texture": "#headextra",
          "uv": [
            52.0,
            44.0,
            51.0,
            50.0
          ],
          "autoUv": false
        },
        "east": {
          "texture": "#headextra",
          "uv": [
            49.0,
            44.0,
            48.0,
            50.0
          ],
          "autoUv": false
        },
        "south": {
          "texture": "#headextra",
          "uv": [
            50.0,
            44.0,
            49.0,
            50.0
          ],
          "autoUv": false
        },
        "west": {
          "texture": "#headextra",
          "uv": [
            51.0,
            44.0,
            50.0,
            50.0
          ],
          "autoUv": false
        },
        "up": {
          "texture": "#headextra",
          "uv": [
            50.0,
            43.0,
            49.0,
            44.0
          ],
          "autoUv": false
        },
        "down": {
          "texture": "#headextra",
          "uv": [
            50.0,
            44.0,
            51.0,
            43.0
          ],
          "autoUv": false
        }
      },
      "children": [],
      "stepParentName": "b_Head"
    },
    {
      "name": "HornDeer0R.013",
      "from": [
        1.3604935998329486,
        9.762085676193237,
        -7.249773741303984
      ],
      "to": [
        1.7136444454780255,
        10.6498863697052,
        -6.896622895658907
      ],
      "rotationOrigin": [
        1.537069022655487,
        10.205986022949219,
        -7.073198318481445
      ],
      "rotationX": -24.431875236628045,
      "rotationY": -30.495281757205774,
      "rotationZ": -20.552886156025448,
      "group": "horn-deer0R",
      "faces": {
        "north": {
          "texture": "#headextra",
          "uv": [
            42.0,
            43.0,
            40.0,
            49.0
          ],
          "autoUv": false
        },
        "east": {
          "texture": "#headextra",
          "uv": [
            44.0,
            43.0,
            42.0,
            49.0
          ],
          "autoUv": false
        },
        "south": {
          "texture": "#headextra",
          "uv": [
            46.0,
            43.0,
            44.0,
            49.0
          ],
          "autoUv": false
        },
        "west": {
          "texture": "#headextra",
          "uv": [
            48.0,
            43.0,
            46.0,
            49.0
          ],
          "autoUv": false
        },
        "up": {
          "texture": "#headextra",
          "uv": [
            44.0,
            41.0,
            42.0,
            43.0
          ],
          "autoUv": false,
          "rotation": 270
        },
        "down": {
          "texture": "#headextra",
          "uv": [
            44.0,
            43.0,
            46.0,
            41.0
          ],
          "autoUv": false,
          "rotation": 90
        }
      },
      "children": [],
      "stepParentName": "b_Head"
    },
    {
      "name": "HornDeer0R.014",
      "from": [
        1.5629721014596618,
        10.47520661354065,
        -7.355089080443225
      ],
      "to": [
        1.8381966025732361,
        11.169904470443726,
        -7.07986460913197
      ],
      "rotationOrigin": [
        1.700584352016449,
        10.822555541992188,
        -7.217476844787598
      ],
      "rotationX": -14.15421553116941,
      "rotationY": -33.627312812439314,
      "rotationZ": -7.9675795913599545,
      "group": "horn-deer0R",
      "faces": {
        "north": {
          "texture": "#headextra",
          "uv": [
            46.0,
            46.0,
            44.0,
            52.0
          ],
          "autoUv": false
        },
        "east": {
          "texture": "#headextra",
          "uv": [
            48.0,
            46.0,
            46.0,
            52.0
          ],
          "autoUv": false
        },
        "south": {
          "texture": "#headextra",
          "uv": [
            50.0,
            46.0,
            48.0,
            52.0
          ],
          "autoUv": false
        },
        "west": {
          "texture": "#headextra",
          "uv": [
            52.0,
            46.0,
            50.0,
            52.0
          ],
          "autoUv": false
        },
        "up": {
          "texture": "#headextra",
          "uv": [
            48.0,
            44.0,
            46.0,
            46.0
          ],
          "autoUv": false,
          "rotation": 270
        },
        "down": {
          "texture": "#headextra",
          "uv": [
            48.0,
            46.0,
            50.0,
            44.0
          ],
          "autoUv": false,
          "rotation": 90
        }
      },
      "children": [],
      "stepParentName": "b_Head"
    },
    {
      "name": "HornDeer0R.015",
      "from": [
        1.642066381620685,
        10.977868884801865,
        -7.404830783856586
      ],
      "to": [
        1.8182582634217344,
        11.752432018518448,
        -7.228638797747418
      ],
      "rotationOrigin": [
        1.7301623225212097,
        11.365150451660156,
        -7.316734790802002
      ],
      "rotationX": -12.479812585387355,
      "rotationY": -33.67467334414418,
      "rotationZ": -1.0329514928524193,
      "group": "horn-deer0R",
      "faces": {
        "north": {
          "texture": "#headextra",
          "uv": [
            49.0,
            44.0,
            48.0,
            50.0
          ],
          "autoUv": false
        },
        "east": {
          "texture": "#headextra",
          "uv": [
            50.0,
            44.0,
            49.0,
            50.0
          ],
          "autoUv": false
        },
        "south": {
          "texture": "#headextra",
          "uv": [
            51.0,
            44.0,
            50.0,
            50.0
          ],
          "autoUv": false
        },
        "west": {
          "texture": "#headextra",
          "uv": [
            52.0,
            44.0,
            51.0,
            50.0
          ],
          "autoUv": false
        },
        "up": {
          "texture": "#headextra",
          "uv": [
            50.0,
            43.0,
            49.0,
            44.0
          ],
          "autoUv": false,
          "rotation": 270
        },
        "down": {
          "texture": "#headextra",
          "uv": [
            50.0,
            44.0,
            51.0,
            43.0
          ],
          "autoUv": false,
          "rotation": 90
        }
      },
      "children": [],
      "stepParentName": "b_Head"
    }
  ],
  "groups": []
}