{
    "model": "kemono0",
    "parts": {
      "body": "skin0",
      "bust": "none",
      "chest": "none",
      "bodyextra": "none",
      "tail": "none",
      "tailextra": "none",
      "eyewhite": "eyewhite1",
      "eye": "animu0",
      "mouth": "animu0",
      "hair": "astolfo",
      "hairextra": "none",
      "headextra": "none",
      "headextra2": "fluff2",
      "ear": "wolf0",
      "ear2": "ear2",
      "horn": "none",
      "mustache": "none",
      "beard": "none",
      "underwear": "none"
    },
    "colors": {
      "body": {
        "r": 255,
        "g": 225,
        "b": 220
      },
      "bust": {
        "r": 255,
        "g": 225,
        "b": 220
      },
      "leg": {
        "r": 255,
        "g": 225,
        "b": 220
      },
      "chest": {
        "r": 255,
        "g": 255,
        "b": 255
      },
      "bodyextra": {
        "r": 255,
        "g": 225,
        "b": 220
      },
      "tail": {
        "r": 255,
        "g": 225,
        "b": 220
      },
      "tailextra": {
        "r": 255,
        "g": 225,
        "b": 220
      },
      "eyewhite": {
        "r": 235,
        "g": 235,
        "b": 235
      },
      "eye": {
        "r": 207,
        "g": 121,
        "b": 193
      },
      "mouth": {
        "r": 255,
        "g": 225,
        "b": 220
      },
      "hair": {
        "r": 255,
        "g": 163,
        "b": 175
      },
      "hairextra": {
        "r": 125,
        "g": 125,
        "b": 125
      },
      "headextra": {
        "r": 255,
        "g": 163,
        "b": 175
      },
      "headextra2": {
        "r": 255,
        "g": 225,
        "b": 225
      },
      "ear": {
        "r": 255,
        "g": 163,
        "b": 175
      },
      "ear2": {
        "r": 255,
        "g": 225,
        "b": 225
      },
      "horn": {
        "r": 80,
        "g": 80,
        "b": 80
      },
      "mustache": {
        "r": 255,
        "g": 163,
        "b": 175
      },
      "beard": {
        "r": 255,
        "g": 163,
        "b": 175
      },
      "underwear": {
        "r": 50,
        "g": 50,
        "b": 50
      }
    }
  }