{
  "code": "horse0",
  "_credit": "tenklop, xeth",
  "guiLayout": [
    ["body", "bodyextra"],
    ["cutieleft", "cutieright"],
    ["wings"],
    ["tail", "tailextra"],
    ["eye", "eyewhite"],
    ["mouth"],
    ["hair", "hairextra"],
    ["ear"],
    ["horn"],
    ["mustache", "beard"],
    ["voicetype", "voicepitch"]
  ],
  "guiRenderHeightOffset": -70,
  "eyeHeight": 1.3,
  "hitboxSize": { "x": 0.6, "y": 1.5 },
  "jointHead": "b_Head",
  "jointNeck": "b_NeckLower",
  "jointTorsoUpper": "b_TorsoUpper",
  "jointTorsoLower": "b_TorsoLower",
  "jointLegUpperL": "b_LegUpperL",
  "jointLegUpperR": "b_LegUpperR",
  "shapePath": "kemono:shapes/entity/horse/",
  "model": "kemono:entity/horse/main/horse0",
  "texturePath": "kemono:textures/entity/horse/",
  "scaleparts": [
    { "code": "body",  "target": "b_Root",  "min": 0.6, "max": 1.3, "isMain": true },
    { "code": "head",  "target": "b_Head",  "min": 0.9, "max": 1.4 },
    { "code": "wingL", "target": "b_WingL", "min": 0.8, "max": 1.2 },
    { "code": "wingR", "target": "b_WingR", "min": 0.8, "max": 1.2 },
    { "code": "tail",  "target": "b_Tail0", "min": 0.8, "max": 1.2 }
  ],
  "skinparts": [
    {
      "code": "body",
      "renderOrder": 100,
      "type": "texture",
      "textureTarget": "main",
      "textureTargetWidth": 128,
      "textureTargetHeight": 128,
      "textureBlendOverlay": false,
      "useDropDown": true,
      "useColorSlider": true,
      "variants": [
        { "code": "skin0", "texture": "kemono:entity/horse/body/horse0" }
      ]
    },

    {
      "code": "bodyextra",
      "renderOrder": 200,
      "type": "texture",
      "textureTarget": "main",
      "useDropDown": true,
      "useColorSlider": true,
      "variants": [
        { "code": "none", "skip": true },
        { "code": "kirin", "texture": "kemono:entity/horse/bodyextra/kirin" },
        { "code": "zecora", "texture": "kemono:entity/horse/bodyextra/zecora" },
        { "code": "batlight", "texture": "kemono:entity/horse/bodyextra/batskeletonlight" },
        { "code": "batdark", "texture": "kemono:entity/horse/bodyextra/batskeletondark" }
      ]
    },
    
    {
      "code": "cutieleft",
      "renderOrder": 300,
      "type": "shape",
      "useDropDown": true,
      "useEmblemTexture": true,
      "texture": "kemono:entity/common/emblemblank",
      "textureTarget": "cutiemark",
      "textureTargetWidth": 32,
      "textureTargetHeight": 32,
      "AltClothedRequirement": [
        "LowerBody",
        "UpperBody",
        "UpperBodyOver",
        "ArmorBody",
        "ArmorLegs"
      ],
      "shapeTemplate": { "base": "kemono:entity/horse/skinparts/cutiemark/mark-{code}" },
      "variants": [
        { "code": "left", "altClothed": "none" },
        { "code": "none", "skip": true }
      ]
    },
    
    {
      "code": "cutieright",
      "renderOrder": 400,
      "type": "shape",
      "useDropDown": true,
      "useEmblemTexture": true,
      "texture": "kemono:entity/common/emblemblank",
      "textureTarget": "cutiemark",
      "textureTargetWidth": 32,
      "textureTargetHeight": 32,
      "AltClothedRequirement": [
        "LowerBody",
        "UpperBody",
        "UpperBodyOver",
        "ArmorBody",
        "ArmorLegs"
      ],
      "shapeTemplate": { "base": "kemono:entity/horse/skinparts/cutiemark/mark-{code}" },
      "variants": [
        { "code": "right", "altClothed": "none" },
        { "code": "none", "skip": true }
      ]
    },

    {
      "code": "hair",
      "renderOrder": 500,
      "type": "shape",
      "textureTarget": "hair",
      "texture": "kemono:entity/horse/hair/hair",
      "textureTargetWidth": 96,
      "textureTargetHeight": 96,
      "useDropDown": true,
      "useColorSlider": true,
      "shapeTemplate": { "base": "kemono:entity/horse/skinparts/hair/hair-{code}" },
      "variants": [
        { "code": "none", "skip": true },
        { "code": "emoshy" },
        { "code": "octavia" },
        { "code": "trixie" },
        { "code": "vinylscratch" },
        { "code": "balding" },
        { "code": "afro" },
        { "code": "combed" },
        { "code": "dreadlocks" },
        { "code": "indigenousbalding" },
        { "code": "iroquois" },
        { "code": "kniaz" },
        { "code": "layered" },
        { "code": "longflowing" },
        { "code": "longwithstrands" },
        { "code": "mediumlength-bangs" },
        { "code": "messy" },
        { "code": "messy2" },
        { "code": "classic" },
        { "code": "short" },
        { "code": "short-parted" },
        { "code": "shortspiky" },
        { "code": "short-trimmed" },
        { "code": "tonsure" }
      ]
    },

    {
      "code": "hairextra",
      "renderOrder": 600,
      "type": "shape",
      "textureTarget": "hairextra",
      "texture": "kemono:entity/horse/hair/hairextra",
      "textureTargetWidth": 96,
      "textureTargetHeight": 96,
      "useDropDown": true,
      "useColorSlider": true,
      "shapeTemplate": { "base": "kemono:entity/horse/skinparts/hairextra/hairextra-{code}" },
      "variants": [
        { "code": "none", "skip": true },
        { "code": "emoshy" },
        { "code": "vinylscratch" }
      ]
    },
    
    {
      "code": "tail",
      "renderOrder": 700,
      "type": "shape",
      "textureTarget": "tail",
      "texture": "kemono:entity/horse/tail/horse-tail",
      "textureTargetWidth": 64,
      "textureTargetHeight": 64,
      "useDropDown": true,
      "useColorSlider": true,
      "useTransformSlider": true,
      "shapeTemplate": { "base": "kemono:entity/horse/skinparts/tail/tail-{code}" },
      "variants": [
        { "code": "horse0" },
        { "code": "horse1" },
        { "code": "horse2" },
        { "code": "vinylscratch" },
        { "code": "kirin" }
      ]
    },

    {
      "code": "tailextra",
      "renderOrder": 800,
      "textureTarget": "tail",
      "texture": "kemono:entity/horse/tail/horse-tailextra",
      "textureTargetWidth": 64,
      "textureTargetHeight": 64,
      "textureRenderTo": { "x": 0, "y": 32 },
      "useDropDown": true,
      "useColorSlider": true,
      "shapeTemplate": { "base": "kemono:entity/horse/skinparts/tailextra/tailextra-{code}" },
      "variants": [
        { "code": "none", "skip": true },
        { "code": "stripe0" },
        { "code": "stripe1" },
        { "code": "vinylscratch" }
      ]
    },

    {
      "code": "wings",
      "renderOrder": 900,
      "type": "shape",
      "shapeTemplate": { "base": "kemono:entity/horse/skinparts/wings/wings-{code}" },
      "useDropDown": true,
      "useColorSlider": false,
      "useTransformSlider": false,
      "variants": [
        { "code": "none", "skip": true },
        { "code": "pegasus" },
        { "code": "bat" }
      ]
    },

    {
      "code": "eyewhite",
      "renderOrder": 1000,
      "type": "texture",
      "textureTarget": "main",
      "textureRenderTo": { "x": 119, "y": 67 },
      "useDropDown": true,
      "useColorSlider": false,
      "variants": [
        { "code": "eyewhite0", "texture": "kemono:entity/common/eyewhite0" },
        { "code": "eyewhite1", "texture": "kemono:entity/common/eyewhite1" }
      ]
    },

    {
      "code": "eye",
      "renderOrder": 1100,
      "type": "shape",
      "texture": "kemono:entity/common/eyecolor",
      "textureTarget": "main",
      "textureRenderTo": { "x": 109, "y": 0 },
      "useDropDown": true,
      "useColorSlider": true,
      "shapeTemplate": { "base": "kemono:entity/horse/skinparts/eye/eye-{code}" },
      "variants": [
        { "code": "eye0" },
        { "code": "derpy" }
      ]
    },

    {
      "code": "mouth",
      "renderOrder": 1200,
      "type": "shape",
      "useDropDown": true,
      "shapeTemplate": { "base": "kemono:entity/horse/skinparts/mouth/mouth-{code}" },
      "variants": [
        { "code": "horse" },
        { "code": "bat" }
      ]
    },

    {
      "code": "ear",
      "renderOrder": 1300,
      "type": "shape",
      "textureTarget": "earextra",
      "texture": "kemono:entity/horse/ear/earextra",
      "textureTargetWidth": 32,
      "textureTargetHeight": 32,
      "useDropDown": true,
      "useColorSlider": true,
      "useTransformSlider": true,
      "shapeTemplate": { "base": "kemono:entity/horse/skinparts/ear/ear-{code}" },
      "variants": [
        { "code": "horse" },
        { "code": "bat" }
      ]
    },

    {
      "code": "horn",
      "renderOrder": 1400,
      "type": "shape",
      "texture": "kemono:entity/horse/horn/horn",
      "textureTarget": "main",
      "textureRenderTo": { "x": 0, "y": 44 },
      "shapeTemplate": { "base": "kemono:entity/horse/skinparts/horn/horn-{code}" },
      "useDropDown": true,
      "useColorSlider": true,
      "useTransformSlider": true,
      "variants": [
        { "code": "none", "skip": true },
        { "code": "unicorn" },
        { "code": "unicornlong" },
        { "code": "kirin" }
      ]
    },

    {
      "code": "mustache",
      "renderOrder": 1500,
      "useDropDown": true,
      "useColorSlider": true,
      "variants": [

      ]
    },

    {
      "code": "beard",
      "renderOrder": 1600,
      "useColorSlider": true,
      "variants": [

      ]
    },
    
    {
      "code": "voicetype",
      "type": "voice", 
      "useDropDown": true,
      "variants": [
        { "code": "altoflute", "sound": "game:sounds/voice/altoflute" },
        { "code": "harmonica", "sound": "game:sounds/voice/harmonica" },
        { "code": "oboe", "sound": "game:sounds/voice/oboe" },
        { "code": "clarinet", "sound": "game:sounds/voice/clarinet" },
        { "code": "accordion", "sound": "game:sounds/voice/accordion" },
        { "code": "trumpet", "sound": "game:sounds/voice/trumpet" },
        { "code": "sax", "sound": "game:sounds/voice/sax" },
        { "code": "tuba", "sound": "game:sounds/voice/tuba" }
      ]
    },
    
    {
      "code": "voicepitch",
      "type": "voice",
      "useDropDown": true,
      "variants": [
        { "code": "verylow" },
        { "code": "low" },
        { "code": "medium" },
        { "code": "high" }
      ]
    }
  ],

  "animationOverrides": [
    {
      "code": "walk",
      "animationSpeed": 1.4
    },
    {
      "code": "walk-fp",
      "animationSpeed": 1.4
    },
    {
      "code": "holdinglanternrighthand",
      "animation": "holdinglanternrighthand",
      "blendMode": "Add",
      "elementWeight": {
        "b_ArmUpperR": 100,
        "b_ArmLowerR": 1000
      },
      "elementBlendMode": {
        "b_ArmUpperR": "AddAverage",
        "b_ArmLowerR": "AddAverage"
      }
    },

    {
      "code": "land",
      "animation": "land"
    },

    {
      "code": "holdinglanternlefthand",
      "animation": "holdinglanternlefthand",
      "blendMode": "Add",
      "elementWeight": {
        "b_ArmUpperL": 100,
        "b_ArmLowerL": 1000
      },
      "elementBlendMode": {
        "b_ArmUpperL": "AddAverage",
        "b_ArmLowerL": "AddAverage"
      }
    },


    {
      "code": "sitflooridle",
      "elementWeight": {
        "b_TorsoLower": 80,
        "b_TorsoUpper": 80,
        "b_LegUpperR": 80,
        "b_LegUpperL": 80,
        "b_LegLowerR": 80,
        "b_LegLowerL": 80
      }
    },
    
    {
      "code": "sitflooredge",
      "elementWeight": {
        "b_TorsoLower": 80,
        "b_TorsoUpper": 80,
        "b_LegUpperR": 80,
        "b_LegUpperL": 80,
        "b_LegLowerR": 80,
        "b_LegLowerL": 80
      }
    },
    {
      "code": "sprint",
      "animationSpeed": 1.4,
      "blendMode": "Average",
      "elementWeight": {
        "b_LegUpperR": 400,
        "b_LegUpperL": 400,
        "b_LegLowerR": 400,
        "b_LegLowerL": 400,
        "b_ArmUpperR": 400,
        "b_ArmLowerR": 400,
        "b_ArmUpperL": 400,
        "b_ArmLowerL": 400
      }
    },
    {
      "code": "sprint-fp",
      "animationSpeed": 1.4,
      "blendMode": "Average",
      "elementWeight": {
        "b_LegUpperR": 400,
        "b_LegUpperL": 400,
        "b_LegLowerR": 400,
        "b_LegLowerL": 400,
        "b_ArmUpperR": 400,
        "b_ArmLowerR": 400,
        "b_ArmUpperL": 400,
        "b_ArmLowerL": 400
      }
    },
    {
      "code": "coldidle",
      "elementWeight": {
        "b_ArmUpperR": 40,
        "b_ArmLowerR": 40,
        "b_ArmUpperL": 40,
        "b_ArmLowerL": 200
      }
    },
    {
      "code": "protecteyes",
      "elementWeight": {
        "b_ArmUpperR": 40,
        "b_ArmLowerR": 40
      }
    },
    {
      "code": "holdunderarm",
      "blendMode": "Add",
      "elementWeight": {
        "b_ArmUpperR": 1000,
        "b_ArmLowerR": 1000
      },
      "elementBlendMode": {
        "b_ArmUpperR": "AddAverage",
        "b_ArmLowerR": "AddAverage"
      }
    },
    {
      "code": "holdbothhands",
      "blendMode": "Add",
      "elementWeight": {
        "b_ArmUpperR": 4000,
        "b_ArmLowerR": 4000
      },
      "elementBlendMode": {
        "b_ArmUpperR": "AddAverage",
        "b_ArmLowerR": "AddAverage"
      }
    },
    {
      "code": "holdbothhands-fp",
      "blendMode": "Add",
      "elementWeight": {
        "b_ArmUpperR": 4000,
        "b_ArmLowerR": 4000
      },
      "elementBlendMode": {
        "b_ArmUpperR": "AddAverage",
        "b_ArmLowerR": "AddAverage"
      }
    },
    {
      "code": "holdbothhandslarge",
      "animation": "holdbothhandslarge",
      "blendMode": "Add",
      "elementWeight": {
        "b_ArmUpperR": 4000,
        "b_ArmLowerR": 4000
      },
      "elementBlendMode": {
        "b_ArmUpperR": "AddAverage",
        "b_ArmLowerR": "AddAverage"
      }
    },
    {
      "code": "holdbothhandslarge-fp",
      "animation": "holdbothhandslarge-fp",
      "blendMode": "Add",
      "elementWeight": {
        "b_ArmUpperR": 4000,
        "b_ArmLowerR": 4000
      },
      "elementBlendMode": {
        "b_ArmUpperR": "AddAverage",
        "b_ArmLowerR": "AddAverage"
      }
    },
    {
      "code": "placeblock",
      "elementWeight": {
        "b_ArmUpperR": 4000,
        "b_ArmLowerR": 4000
      },
      "elementBlendMode": {
        "b_ArmUpperR": "AddAverage",
        "b_ArmLowerR": "AddAverage"
      }
    },
    {
      "code": "twohandplaceblock",
      "elementWeight": {
        "b_ArmUpperR": 4000,
        "b_ArmLowerR": 4000
      },
      "elementBlendMode": {
        "b_ArmUpperR": "AddAverage",
        "b_ArmLowerR": "AddAverage"
      }
    },
    {
      "code": "twohandplaceblock-fp",
      "elementWeight": {
        "b_ArmUpperR": 4000,
        "b_ArmLowerR": 4000
      },
      "elementBlendMode": {
        "b_ArmUpperR": "AddAverage",
        "b_ArmLowerR": "AddAverage"
      }
    },
    {
      "code": "bowaim",
      "elementWeight": {
        "b_ArmUpperR": 12,
        "b_ArmLowerR": 12,
        "b_ArmUpperL": 12,
        "b_ArmLowerL": 12
      }
    },
    {
      "code": "bowhit",
      "elementWeight": {
        "b_ArmUpperR": 20,
        "b_ArmLowerR": 20,
        "b_ArmUpperL": 20,
        "b_ArmLowerL": 20
      }
    },
    {
      "code": "aim",
      "elementWeight": {
        "b_ArmUpperR": 20,
        "b_ArmLowerR": 20,
        "b_ArmUpperL": 20,
        "b_ArmLowerL": 20
      }
    },
    {
      "code": "throw",
      "elementWeight": {
        "b_ArmUpperR": 20,
        "b_ArmLowerR": 20,
        "b_ArmUpperL": 20,
        "b_ArmLowerL": 20
      }
    },
    {
      "code": "slingaimgreek",
      "elementWeight": {
        "b_ArmUpperR": 20,
        "b_ArmLowerR": 20,
        "b_ArmUpperL": 20,
        "b_ArmLowerL": 20
      }
    },
    {
      "code": "slingthrowgreek",
      "elementWeight": {
        "b_ArmUpperR": 20,
        "b_ArmLowerR": 20,
        "b_ArmUpperL": 20,
        "b_ArmLowerL": 20
      }
    },
    {
      "code": "slingaimbalearic",
      "elementWeight": {
        "b_ArmUpperR": 20,
        "b_ArmLowerR": 20,
        "b_ArmUpperL": 20,
        "b_ArmLowerL": 20
      }
    },
    {
      "code": "slingthrowbalearic",
      "elementWeight": {
        "b_ArmUpperR": 20,
        "b_ArmLowerR": 20,
        "b_ArmUpperL": 20,
        "b_ArmLowerL": 20
      }
    },
    {
      "code": "hit",
      "elementWeight": {
        "b_ArmUpperR": 20,
        "b_ArmLowerR": 20,
        "b_ArmUpperL": 20,
        "b_ArmLowerL": 20
      }
    },
    {
      "code": "smithing",
      "elementWeight": {
        "b_ArmUpperR": 20,
        "b_ArmLowerR": 20,
        "b_ArmUpperL": 20,
        "b_ArmLowerL": 20
      }
    },
    {
      "code": "knap",
      "elementWeight": {
        "b_ArmUpperR": 20,
        "b_ArmLowerR": 20,
        "b_ArmUpperL": 20,
        "b_ArmLowerL": 20
      }
    },
    {
      "code": "knap-ifp",
      "elementWeight": {
        "b_ArmUpperR": 20,
        "b_ArmLowerR": 20,
        "b_ArmUpperL": 20,
        "b_ArmLowerL": 20,
        "b_TorsoLower": 0.4,
        "b_TorsoUpper": 0.4
      }
    },
    {
      "code": "breaktool",
      "elementWeight": {
        "b_ArmUpperR": 20,
        "b_ArmLowerR": 20,
        "b_ArmUpperL": 20,
        "b_ArmLowerL": 20
      }
    },
    {
      "code": "breakhand",
      "elementWeight": {
        "b_ArmUpperR": 20,
        "b_ArmLowerR": 20,
        "b_ArmUpperL": 20,
        "b_ArmLowerL": 20
      }
    },
    {
      "code": "falx",
      "elementWeight": {
        "b_ArmUpperR": 20,
        "b_ArmLowerR": 20,
        "b_ArmUpperL": 20,
        "b_ArmLowerL": 20
      }
    },
    {
      "code": "swordhit",
      "elementWeight": {
        "b_ArmUpperR": 20,
        "b_ArmLowerR": 20,
        "b_ArmUpperL": 20,
        "b_ArmLowerL": 20
      }
    },
    {
      "code": "axechop",
      "elementWeight": {
        "b_ArmUpperR": 20,
        "b_ArmLowerR": 20,
        "b_ArmUpperL": 20,
        "b_ArmLowerL": 20
      }
    },
    {
      "code": "hoe",
      "elementWeight": {
        "b_ArmUpperR": 20,
        "b_ArmLowerR": 20,
        "b_ArmUpperL": 20,
        "b_ArmLowerL": 20
      }
    },
    {
      "code": "water",
      "elementWeight": {
        "b_ArmUpperR": 20,
        "b_ArmLowerR": 20,
        "b_ArmUpperL": 20,
        "b_ArmLowerL": 20
      }
    },
    {
      "code": "shoveldig",
      "elementWeight": {
        "b_ArmUpperR": 20,
        "b_ArmLowerR": 20,
        "b_ArmUpperL": 20,
        "b_ArmLowerL": 20
      }
    },
    {
      "code": "spearhit",
      "elementWeight": {
        "b_ArmUpperR": 20,
        "b_ArmLowerR": 20,
        "b_ArmUpperL": 20,
        "b_ArmLowerL": 20,
        "b_Neck": 20,
        "b_NeckLower": 20,
        "b_TorsoUpper": 20,
        "b_TorsoLower": 20,
        "b_Head": 20,
        "b_LegUpperL": 20,
        "b_LegUpperR": 20,
        "b_LegLowerL": 20,
        "b_LegLowerR": 20
      },
      "elementBlendMode": {
        "b_ArmUpperR": "AddAverage",
        "b_ArmLowerR": "AddAverage"
      }
    },
    {
      "code": "scythe",
      "elementWeight": {
        "b_ArmUpperR": 20,
        "b_ArmLowerR": 20,
        "b_ArmUpperL": 20,
        "b_ArmLowerL": 20
      }
    },
    {
      "code": "hammerandchisel",
      "elementWeight": {
        "b_ArmUpperR": 20,
        "b_ArmLowerR": 20,
        "b_ArmUpperL": 20,
        "b_ArmLowerL": 20
      }
    },
    {
      "code": "hammerandchisel-ifp",
      "elementWeight": {
        "b_ArmUpperR": 20,
        "b_ArmLowerR": 20,
        "b_ArmUpperL": 20,
        "b_ArmLowerL": 20
      }
    },
    {
      "code": "shears",
      "elementWeight": {
        "b_ArmUpperR": 20,
        "b_ArmLowerR": 20,
        "b_ArmUpperL": 20,
        "b_ArmLowerL": 20
      }
    },
    {
      "code": "interactstatic",
      "elementWeight": {
        "b_ArmUpperR": 8,
        "b_ArmLowerR": 8,
        "b_ArmUpperL": 8,
        "b_ArmLowerL": 8
      }
    },
    {
      "code": "eat",
      "elementWeight": {
        "b_ArmUpperR": 15,
        "b_ArmLowerR": 15
      }
    },
    {
      "code": "wave",
      "elementWeight": {
        "b_ArmUpperR": 50,
        "b_ArmLowerR": 50,
        "b_ArmUpperL": 10,
        "b_ArmLowerL": 5,
        "b_Neck": 20,
        "b_Head": 20
      }
    },
    {
      "code": "nod",
      "elementWeight": {
        "b_ArmUpperR": 20,
        "b_ArmLowerR": 20,
        "b_ArmUpperL": 20,
        "b_ArmLowerL": 20,
        "b_Neck": 20,
        "b_Head": 20
      }
    },
    {
      "code": "bow",
      "elementWeight": {
        "b_ArmUpperR": 20,
        "b_ArmLowerR": 20,
        "b_ArmUpperL": 20,
        "b_ArmLowerL": 20,
        "b_Neck": 20,
        "b_Head": 20
      }
    },
    {
      "code": "facepalm",
      "elementWeight": {
        "b_ArmUpperR": 20,
        "b_ArmLowerR": 20,
        "b_ArmUpperL": 20,
        "b_ArmLowerL": 20,
        "b_Neck": 20,
        "b_Head": 20
      }
    },
    {
      "code": "cry",
      "elementWeight": {
        "b_ArmUpperR": 20,
        "b_ArmLowerR": 20,
        "b_ArmUpperL": 20,
        "b_ArmLowerL": 20,
        "b_Neck": 20,
        "b_NeckLower": 20,
        "b_TorsoUpper": 20,
        "b_TorsoLower": 20,
        "b_Head": 20,
        "b_LegUpperL": 20,
        "b_LegUpperR": 20,
        "b_LegLowerL": 20,
        "b_LegLowerR": 20
      }
    },
    {
      "code": "shrug",
      "elementWeight": {
        "b_ArmUpperR": 20,
        "b_ArmLowerR": 20,
        "b_ArmUpperL": 20,
        "b_ArmLowerL": 20,
        "b_Neck": 20,
        "b_Head": 20
      }
    },
    {
      "code": "cheer",
      "elementWeight": {
        "b_ArmUpperR": 20,
        "b_ArmLowerR": 20,
        "b_ArmUpperL": 20,
        "b_ArmLowerL": 20,
        "b_Neck": 20,
        "b_NeckLower": 20,
        "b_TorsoUpper": 20,
        "b_TorsoLower": 20,
        "b_Head": 20,
        "b_LegUpperL": 20,
        "b_LegUpperR": 20,
        "b_LegLowerL": 20,
        "b_LegLowerR": 20
      },
      "elementBlendMode": {
        "b_ArmUpperR": "AddAverage",
        "b_ArmLowerR": "AddAverage"
      }
    },
    {
      "code": "laugh",
      "elementWeight": {
        "b_ArmUpperR": 20,
        "b_ArmLowerR": 20,
        "b_ArmUpperL": 20,
        "b_ArmLowerL": 20,
        "b_Neck": 20,
        "b_Head": 20
      }
    },
    {
      "code": "rage",
      "elementWeight": {
        "b_ArmUpperR": 20,
        "b_ArmLowerR": 20,
        "b_ArmUpperL": 20,
        "b_ArmLowerL": 20,
        "b_Neck": 20,
        "b_Head": 20
      }
    },
    {
      "code": "panning",
      "elementWeight": {
        "b_ArmUpperR": 20,
        "b_ArmLowerR": 20,
        "b_ArmUpperL": 20,
        "b_ArmLowerL": 20,
        "b_Neck": 20,
        "b_Head": 20
      }
    },
    {
      "code": "pour",
      "elementWeight": {
        "b_ArmUpperR": 10,
        "b_ArmLowerR": 10,
        "b_ArmUpperL": 10,
        "b_ArmLowerL": 10,
        "b_Neck": 10,
        "b_Head": 10
      }
    },
    {
      "code": "hammerandchisel",
      "elementWeight": {
        "b_ArmUpperR": 20,
        "b_ArmLowerR": 20,
        "b_ArmUpperL": 20,
        "b_ArmLowerL": 20,
        "b_Neck": 20,
        "b_Head": 20
      }
    },
    {
      "code": "petlarge",
      "elementWeight": {
        "b_ArmUpperR": 20,
        "b_ArmLowerR": 20,
        "b_ArmUpperL": 20,
        "b_ArmLowerL": 20,
        "b_Neck": 20,
        "b_Head": 20
      }
    },
    {
      "code": "petsmall",
      "elementWeight": {
        "b_ArmUpperR": 20,
        "b_ArmLowerR": 20,
        "b_ArmUpperL": 20,
        "b_ArmLowerL": 20,
        "b_Neck": 20,
        "b_Head": 20
      }
    },
    {
      "code": "crudeOarIdle",
      "blendMode": "AddAverage",
      "elementWeight": {
        "b_ArmUpperR": 1000,
        "b_ArmLowerR": 1000
      }
    },
    {
      "code": "crudeOarForward",
      "blendMode": "AddAverage",
      "elementWeight": {
        "b_Root": 1000,
        "b_TorsoLower": 1000,
        "b_ArmUpperR": 1000,
        "b_ArmLowerR": 1000,
        "b_ArmUpperL": 1000,
        "b_ArmLowerL": 1000
      }
    },
    {
      "code": "crudeOarBackward",
      "blendMode": "AddAverage",
      "elementWeight": {
        "b_Root": 1000,
        "b_TorsoLower": 1000,
        "b_ArmUpperR": 1000,
        "b_ArmLowerR": 1000,
        "b_ArmUpperL": 1000,
        "b_ArmLowerL": 1000
      },
      "elementBlendMode": {
        "b_ArmUpperR": "AddAverage",
        "b_ArmLowerR": "AddAverage"
      }
    },
    {
      "code": "crudeOarReady",
      "blendMode": "AddAverage",
      "elementWeight": {
        "b_Root": 1000,
        "b_TorsoLower": 1000,
        "b_ArmUpperR": 1000,
        "b_ArmLowerR": 1000,
        "b_ArmUpperL": 1000,
        "b_ArmLowerL": 1000
      }
    },
    {
      "code": "yawn",
      "elementWeight": {
        "b_ArmUpperR": 30,
        "b_ArmLowerR": 30,
        "b_ArmUpperL": 30,
        "b_ArmLowerL": 30,
        "b_TorsoLower": 10,
        "b_TorsoUpper": 10
      }
    },
    {
      "code": "stretch",
      "elementWeight": {
        "b_ArmUpperR": 30,
        "b_ArmLowerR": 30,
        "b_ArmUpperL": 30,
        "b_ArmLowerL": 30
      }
    },
    {
      "code": "cough",
      "elementWeight": {
        "b_ArmUpperR": 30,
        "b_ArmLowerR": 30,
        "b_ArmUpperL": 30,
        "b_ArmLowerL": 30,
        "b_TorsoUpper": 10
      }
    },
    {
      "code": "headscratch",
      "elementWeight": {
        "b_ArmUpperR": 30,
        "b_ArmLowerR": 30,
        "b_ArmUpperL": 30,
        "b_ArmLowerL": 30
      }
    },

    {
      "code": "buck",
      "animation": "buck",
      "blendMode": "Add",
      "animationSpeed": 1,
      "elementWeight": {
        "b_ArmUpperR": 200,
        "b_ArmLowerR": 200,
        "b_ArmUpperL": 200,
        "b_ArmLowerL": 200,
        "b_LegUpperR": 200,
        "b_LegUpperL": 200,
        "b_LegLowerR": 200,
        "b_LegLowerL": 200,
        "b_TorsoLower": 200,
        "b_TorsoUpper": 200,
        "b_Tail0": 200,
        "b_Tail1": 200,
        "b_Tail2": 200,
        "b_Tail3": 200,
        "b_Tail4": 200
      }
    },

    {
      "code": "summonfire",
      "animation": "summonfire",
      "blendMode": "Add",
      "animationSpeed": 1,
      "elementWeight": {
        "b_ArmUpperR": 200,
        "b_ArmLowerR": 200,
        "b_ArmUpperL": 200,
        "b_ArmLowerL": 200,
        "b_LegUpperR": 200,
        "b_LegUpperL": 200,
        "b_LegLowerR": 200,
        "b_LegLowerL": 200,
        "b_TorsoLower": 200,
        "b_TorsoUpper": 200,
        "b_Tail0": 200,
        "b_Tail1": 200,
        "b_Tail2": 200,
        "b_Tail3": 200,
        "b_Tail4": 200
      }
    },

  
    {
      "code": "hardstyle1",
      "animation": "hardstyle1",
      "blendMode": "AddAverage",
      "animationSpeed": 1.2,
      "elementWeight": {
        "b_ArmUpperR": 200,
        "b_ArmLowerR": 200,
        "b_ArmUpperL": 200,
        "b_ArmLowerL": 200,
        "b_LegUpperR": 200,
        "b_LegUpperL": 200,
        "b_LegLowerR": 200,
        "b_LegLowerL": 200,
        "b_TorsoLower": 200,
        "b_TorsoUpper": 200
      }
    },

    {
      "code": "mountallow",
      "animation": "mountallow",
      "blendMode": "AddAverage",
      "animationSpeed": 1,
      "elementWeight": {
        "b_TorsoLower": 200,
        "b_TorsoUpper": 200,
        "b_NeckLower": 200,
        "b_Neck": 200,
        "b_Head": 200,
        "b_ArmUpperR": 200,
        "b_ArmLowerR": 200,
        "b_ArmUpperL": 200,
        "b_ArmLowerL": 200,
        "b_LegUpperR": 200,
        "b_LegUpperL": 200,
        "b_LegLowerR": 200,
        "b_LegLowerL": 200,
        "b_Tail0": 200,
        "b_Tail1": 200,
        "b_Tail2": 200,
        "b_Tail3": 200,
        "b_Tail4": 200
      }
    },

    {
      "code": "mountponyflying",
      "animation": "mountponyflying",
      "blendMode": "AddAverage",
      "animationSpeed": 1,
      "elementWeight": {
        "b_TorsoLower": 200,
        "b_TorsoUpper": 200,
        "b_NeckLower": 200,
        "b_Neck": 200,
        "b_Head": 200,
        "b_ArmUpperR": 200,
        "b_ArmLowerR": 200,
        "b_ArmUpperL": 200,
        "b_ArmLowerL": 200,
        "b_LegUpperR": 200,
        "b_LegUpperL": 200,
        "b_LegLowerR": 200,
        "b_LegLowerL": 200,
        "b_Tail0": 200,
        "b_Tail1": 200,
        "b_Tail2": 200,
        "b_Tail3": 200,
        "b_Tail4": 200
      }
    },

    {
      "code": "mountponyground",
      "animation": "mountponyground",
      "blendMode": "AddAverage",
      "animationSpeed": 1,
      "elementWeight": {
        "b_TorsoLower": 200,
        "b_TorsoUpper": 200,
        "b_NeckLower": 200,
        "b_Neck": 200,
        "b_Head": 200,
        "b_ArmUpperR": 200,
        "b_ArmLowerR": 200,
        "b_ArmUpperL": 200,
        "b_ArmLowerL": 200,
        "b_LegUpperR": 200,
        "b_LegUpperL": 200,
        "b_LegLowerR": 200,
        "b_LegLowerL": 200,
        "b_Tail0": 200,
        "b_Tail1": 200,
        "b_Tail2": 200,
        "b_Tail3": 200,
        "b_Tail4": 200
      }
    }
  ]
}