{
  "textureWidth": 64,
  "textureHeight": 64,
  "textures": {
    "headextra": "kemono:entity/horse/head/headextra"
  },
  "textureSizes": {
    "headextra": [
      64,
      64
    ]
  },
  "elements": [
    {
      "name": "EarLowerL.006",
      "from": [
        -0.1313715174741117,
        -2.6855242252349854,
        -0.4342170821377951
      ],
      "to": [
        0.6001632144760924,
        2.626316785812378,
        0.5331592372423146
      ],
      "rotationOrigin": [
        0.297329843044281,
        -0.028354644775390625,
        0.09011220932006836
      ],
      "rotationX": 13.640444432932819,
      "rotationY": 37.766489411737076,
      "rotationZ": 3.8212436731515442,
      "group": "EarsWolf0L",
      "faces": {
        "north": {
          "texture": "#headextra",
          "uv": [
            8.0,
            12.0,
            11.0,
            29.0
          ],
          "autoUv": false
        },
        "east": {
          "texture": "#headextra",
          "uv": [
            8.0,
            12.0,
            5.0,
            29.0
          ],
          "autoUv": false
        },
        "south": {
          "texture": "#headextra",
          "uv": [
            2.0,
            12.0,
            5.0,
            29.0
          ],
          "autoUv": false
        },
        "west": {
          "texture": "#headextra",
          "uv": [
            37.0,
            15.0,
            40.0,
            27.0
          ],
          "autoUv": false
        },
        "up": {
          "texture": "#headextra",
          "uv": [
            5.0,
            9.0,
            8.0,
            12.0
          ],
          "autoUv": false,
          "rotation": 90
        },
        "down": {
          "texture": "#headextra",
          "uv": [
            8.0,
            32.0,
            5.0,
            29.0
          ],
          "autoUv": false,
          "rotation": 270
        }
      },
      "children": [],
      "stepParentName": "b_EarL"
    },
    {
      "name": "EarUpperL.004",
      "from": [
        -0.6894163320954133,
        0.34058746695518494,
        -2.7459304508384768
      ],
      "to": [
        0.06722892653295975,
        1.2391994297504425,
        1.9559948599454895
      ],
      "rotationOrigin": [
        -0.2875721752643585,
        0.7658271789550781,
        -0.3919684886932373
      ],
      "rotationX": -55.08230644837795,
      "rotationY": 10.488709135717443,
      "rotationZ": 35.91656682598498,
      "group": "EarsWolf0L",
      "faces": {
        "north": {
          "texture": "#headextra",
          "uv": [
            6.0,
            30.0,
            9.0,
            33.0
          ],
          "autoUv": false,
          "rotation": 90
        },
        "east": {
          "texture": "#headextra",
          "uv": [
            6.0,
            13.0,
            9.0,
            30.0
          ],
          "autoUv": false,
          "rotation": 270
        },
        "south": {
          "texture": "#headextra",
          "uv": [
            6.0,
            10.0,
            9.0,
            13.0
          ],
          "autoUv": false,
          "rotation": 90
        },
        "west": {
          "texture": "#headextra",
          "uv": [
            37.0,
            15.0,
            40.0,
            27.0
          ],
          "autoUv": false,
          "rotation": 90
        },
        "up": {
          "texture": "#headextra",
          "uv": [
            9.0,
            13.0,
            12.0,
            30.0
          ],
          "autoUv": false,
          "rotation": 180
        },
        "down": {
          "texture": "#headextra",
          "uv": [
            6.0,
            30.0,
            3.0,
            13.0
          ],
          "autoUv": false
        }
      },
      "children": [],
      "stepParentName": "b_EarL"
    },
    {
      "name": "FluffL.008",
      "from": [
        -1.2929957629436573,
        0.3195687710052404,
        0.12408392349413067
      ],
      "to": [
        -0.08847897040900299,
        1.5129129410976496,
        0.6749506917639234
      ],
      "rotationOrigin": [
        -0.6907373666763306,
        0.6901149749755859,
        0.399517297744751
      ],
      "rotationX": 77.74563226547814,
      "rotationY": -36.83713972231929,
      "rotationZ": 31.72675461927532,
      "group": "EarsWolf0L",
      "faces": {
        "north": {
          "texture": "#headextra",
          "uv": [
            52.0,
            2.0,
            57.0,
            11.0
          ],
          "autoUv": false,
          "rotation": 180
        },
        "east": {
          "texture": "#headextra",
          "uv": [
            58.0,
            5.0,
            60.0,
            11.0
          ],
          "autoUv": false,
          "rotation": 180
        },
        "south": {
          "texture": "#headextra",
          "uv": [
            51.0,
            2.0,
            55.0,
            11.0
          ],
          "autoUv": false,
          "rotation": 180
        },
        "west": {
          "texture": "#headextra",
          "uv": [
            51.0,
            4.0,
            53.0,
            10.0
          ],
          "autoUv": false,
          "rotation": 180
        },
        "up": {
          "texture": "#headextra",
          "uv": [
            49.0,
            29.0,
            52.0,
            31.0
          ],
          "autoUv": false,
          "rotation": 270,
          "enabled": false
        },
        "down": {
          "texture": "#headextra",
          "uv": [
            54.0,
            14.0,
            49.0,
            6.0
          ],
          "autoUv": false,
          "rotation": 270
        }
      },
      "children": [],
      "stepParentName": "b_EarL"
    },
    {
      "name": "FluffL.009",
      "from": [
        -0.7776641088072412,
        0.7203135999349399,
        -0.0034054815769195557
      ],
      "to": [
        -0.37907444553105796,
        2.2559289423319058,
        0.8731779158115387
      ],
      "rotationOrigin": [
        -0.5783692598342896,
        1.2619953155517578,
        0.43488621711730957
      ],
      "rotationX": 28.85320865808633,
      "rotationY": 40.955207621987135,
      "rotationZ": 17.24663405053781,
      "group": "EarsWolf0L",
      "faces": {
        "north": {
          "texture": "#headextra",
          "uv": [
            50.0,
            2.0,
            52.0,
            10.0
          ],
          "autoUv": false,
          "rotation": 180
        },
        "east": {
          "texture": "#headextra",
          "uv": [
            57.0,
            2.0,
            60.0,
            11.0
          ],
          "autoUv": false,
          "rotation": 180
        },
        "south": {
          "texture": "#headextra",
          "uv": [
            58.0,
            5.0,
            60.0,
            11.0
          ],
          "autoUv": false,
          "rotation": 180
        },
        "west": {
          "texture": "#headextra",
          "uv": [
            52.0,
            2.0,
            55.0,
            11.0
          ],
          "autoUv": false,
          "rotation": 180
        },
        "up": {
          "texture": "#headextra",
          "uv": [
            50.0,
            29.0,
            53.0,
            31.0
          ],
          "autoUv": false,
          "enabled": false
        },
        "down": {
          "texture": "#headextra",
          "uv": [
            55.0,
            14.0,
            51.0,
            6.0
          ],
          "autoUv": false,
          "rotation": 180
        }
      },
      "children": [],
      "stepParentName": "b_EarL"
    },
    {
      "name": "FluffL.010",
      "from": [
        -1.1643962628853308,
        -1.9963823395315856,
        0.27160924673080267
      ],
      "to": [
        0.8234714038383948,
        -0.3272870940621644,
        0.7215538620948809
      ],
      "rotationOrigin": [
        -0.17046242952346802,
        -1.161834716796875,
        0.4965815544128418
      ],
      "rotationX": 67.38060163393034,
      "rotationY": -100.33332739789876,
      "rotationZ": 66.6585345254441,
      "group": "EarsWolf0L",
      "faces": {
        "north": {
          "texture": "#headextra",
          "uv": [
            25.0,
            3.0,
            31.0,
            11.0
          ],
          "autoUv": false,
          "rotation": 90
        },
        "east": {
          "texture": "#headextra",
          "uv": [
            17.0,
            25.0,
            23.0,
            31.0
          ],
          "autoUv": false,
          "enabled": false
        },
        "south": {
          "texture": "#headextra",
          "uv": [
            17.0,
            2.0,
            23.0,
            11.0
          ],
          "autoUv": false,
          "rotation": 270
        },
        "west": {
          "texture": "#headextra",
          "uv": [
            16.0,
            7.0,
            21.0,
            13.0
          ],
          "autoUv": false
        },
        "up": {
          "texture": "#headextra",
          "uv": [
            18.0,
            2.0,
            20.0,
            9.0
          ],
          "autoUv": false,
          "rotation": 270
        },
        "down": {
          "texture": "#headextra",
          "uv": [
            22.0,
            11.0,
            20.0,
            2.0
          ],
          "autoUv": false,
          "rotation": 270
        }
      },
      "children": [],
      "stepParentName": "b_EarL"
    },
    {
      "name": "EarLowerL.007",
      "from": [
        -0.494484615989768,
        -2.9025542736053467,
        0.19435874397619157
      ],
      "to": [
        0.17659849752387247,
        2.5503268241882324,
        0.670759194316557
      ],
      "rotationOrigin": [
        0.34135180711746216,
        -0.24788284301757812,
        0.38285326957702637
      ],
      "rotationX": 12.654810569659544,
      "rotationY": 37.524909035888314,
      "rotationZ": -5.5454382710961685,
      "group": "EarsWolf0L",
      "faces": {
        "north": {
          "texture": "#headextra",
          "uv": [
            7.0,
            11.0,
            9.0,
            21.0
          ],
          "autoUv": false
        },
        "east": {
          "texture": "#headextra",
          "uv": [
            9.0,
            1.0,
            11.0,
            9.0
          ],
          "autoUv": false,
          "rotation": 180
        },
        "south": {
          "texture": "#headextra",
          "uv": [
            7.0,
            3.0,
            9.0,
            11.0
          ],
          "autoUv": false
        },
        "west": {
          "texture": "#headextra",
          "uv": [
            9.0,
            11.0,
            11.0,
            21.0
          ],
          "autoUv": false
        },
        "up": {
          "texture": "#headextra",
          "uv": [
            9.0,
            9.0,
            11.0,
            11.0
          ],
          "autoUv": false,
          "rotation": 90
        },
        "down": {
          "texture": "#headextra",
          "uv": [
            11.0,
            23.0,
            9.0,
            21.0
          ],
          "autoUv": false,
          "rotation": 270
        }
      },
      "children": [],
      "stepParentName": "b_EarL"
    },
    {
      "name": "EarUpperL.005",
      "from": [
        -0.38568450328717163,
        2.070560336112976,
        0.5695840152169915
      ],
      "to": [
        0.28682647050324206,
        3.11412250995636,
        1.0788691667695218
      ],
      "rotationOrigin": [
        0.22323888540267944,
        2.512481689453125,
        0.7769432067871094
      ],
      "rotationX": -54.231165840051396,
      "rotationY": 22.493824427562558,
      "rotationZ": 31.309003174164413,
      "group": "EarsWolf0L",
      "faces": {
        "north": {
          "texture": "#headextra",
          "uv": [
            6.0,
            2.0,
            11.0,
            6.0
          ],
          "autoUv": false,
          "rotation": 180
        },
        "east": {
          "texture": "#headextra",
          "uv": [
            6.0,
            6.0,
            11.0,
            8.0
          ],
          "autoUv": false,
          "rotation": 270
        },
        "south": {
          "texture": "#headextra",
          "uv": [
            6.0,
            2.0,
            11.0,
            6.0
          ],
          "autoUv": false
        },
        "west": {
          "texture": "#headextra",
          "uv": [
            11.0,
            6.0,
            6.0,
            8.0
          ],
          "autoUv": false,
          "rotation": 270
        },
        "up": {
          "texture": "#headextra",
          "uv": [
            1.0,
            6.0,
            6.0,
            8.0
          ],
          "autoUv": false,
          "rotation": 180
        },
        "down": {
          "texture": "#headextra",
          "uv": [
            6.0,
            8.0,
            1.0,
            6.0
          ],
          "autoUv": false
        }
      },
      "children": [],
      "stepParentName": "b_EarL"
    },
    {
      "name": "EarLowerL.008",
      "from": [
        -1.6092741019211645,
        -1.733006238937378,
        -1.1893598675098753
      ],
      "to": [
        -0.9407323218444925,
        3.719874858856201,
        -0.7129593884149699
      ],
      "rotationOrigin": [
        -0.7243763208389282,
        0.9216651916503906,
        -1.0008653402328491
      ],
      "rotationX": 49.21382498897592,
      "rotationY": 28.545590598247294,
      "rotationZ": -26.02338786041647,
      "group": "EarsWolf0L",
      "faces": {
        "north": {
          "texture": "#headextra",
          "uv": [
            7.0,
            11.0,
            9.0,
            21.0
          ],
          "autoUv": false
        },
        "east": {
          "texture": "#headextra",
          "uv": [
            9.0,
            1.0,
            11.0,
            9.0
          ],
          "autoUv": false,
          "rotation": 180
        },
        "south": {
          "texture": "#headextra",
          "uv": [
            7.0,
            3.0,
            9.0,
            11.0
          ],
          "autoUv": false
        },
        "west": {
          "texture": "#headextra",
          "uv": [
            9.0,
            11.0,
            11.0,
            21.0
          ],
          "autoUv": false
        },
        "up": {
          "texture": "#headextra",
          "uv": [
            9.0,
            9.0,
            11.0,
            11.0
          ],
          "autoUv": false,
          "rotation": 90
        },
        "down": {
          "texture": "#headextra",
          "uv": [
            11.0,
            23.0,
            9.0,
            21.0
          ],
          "autoUv": false,
          "rotation": 270
        }
      },
      "children": [],
      "stepParentName": "b_EarL"
    },
    {
      "name": "EarLowerL.009",
      "from": [
        -0.1313715174741117,
        -2.6854631900787354,
        -0.5323016456132863
      ],
      "to": [
        0.6001632144760924,
        2.626377820968628,
        0.4350746737668234
      ],
      "rotationOrigin": [
        0.297329843044281,
        -0.028293609619140625,
        -0.08925461769104004
      ],
      "rotationX": -13.640449555574698,
      "rotationY": -37.76649965702084,
      "rotationZ": 3.8212402580569593,
      "group": "EarsWolf0R",
      "faces": {
        "north": {
          "texture": "#headextra",
          "uv": [
            5.0,
            12.0,
            2.0,
            29.0
          ],
          "autoUv": false
        },
        "east": {
          "texture": "#headextra",
          "uv": [
            5.0,
            12.0,
            8.0,
            29.0
          ],
          "autoUv": false
        },
        "south": {
          "texture": "#headextra",
          "uv": [
            11.0,
            12.0,
            8.0,
            29.0
          ],
          "autoUv": false
        },
        "west": {
          "texture": "#headextra",
          "uv": [
            40.0,
            15.0,
            37.0,
            27.0
          ],
          "autoUv": false
        },
        "up": {
          "texture": "#headextra",
          "uv": [
            8.0,
            9.0,
            5.0,
            12.0
          ],
          "autoUv": false,
          "rotation": 90
        },
        "down": {
          "texture": "#headextra",
          "uv": [
            5.0,
            32.0,
            8.0,
            29.0
          ],
          "autoUv": false,
          "rotation": 270
        }
      },
      "children": [],
      "stepParentName": "b_EarR"
    },
    {
      "name": "EarUpperL.006",
      "from": [
        -0.6894163320954133,
        0.3406465947628021,
        -1.955137029897882
      ],
      "to": [
        0.06722892653295975,
        1.2392585575580597,
        2.746788280886084
      ],
      "rotationOrigin": [
        -0.2875721752643585,
        0.7658863067626953,
        0.3928263187408447
      ],
      "rotationX": 55.08230303328337,
      "rotationY": -10.488706574396504,
      "rotationZ": 35.91657024107956,
      "group": "EarsWolf0R",
      "faces": {
        "north": {
          "texture": "#headextra",
          "uv": [
            9.0,
            10.0,
            6.0,
            13.0
          ],
          "autoUv": false,
          "rotation": 270
        },
        "east": {
          "texture": "#headextra",
          "uv": [
            9.0,
            13.0,
            6.0,
            30.0
          ],
          "autoUv": false,
          "rotation": 90
        },
        "south": {
          "texture": "#headextra",
          "uv": [
            9.0,
            30.0,
            6.0,
            33.0
          ],
          "autoUv": false,
          "rotation": 270
        },
        "west": {
          "texture": "#headextra",
          "uv": [
            40.0,
            15.0,
            37.0,
            27.0
          ],
          "autoUv": false,
          "rotation": 270
        },
        "up": {
          "texture": "#headextra",
          "uv": [
            12.0,
            13.0,
            9.0,
            30.0
          ],
          "autoUv": false
        },
        "down": {
          "texture": "#headextra",
          "uv": [
            3.0,
            30.0,
            6.0,
            13.0
          ],
          "autoUv": false,
          "rotation": 180
        }
      },
      "children": [],
      "stepParentName": "b_EarR"
    },
    {
      "name": "FluffL.011",
      "from": [
        -1.2866989494556507,
        0.28016294825133414,
        -0.6747942891760328
      ],
      "to": [
        -0.0821821569209964,
        1.4735071183437434,
        -0.12392752090624004
      ],
      "rotationOrigin": [
        -0.684440553188324,
        0.6507091522216797,
        -0.39936089515686035
      ],
      "rotationX": -77.343921519633,
      "rotationY": 37.237877166207696,
      "rotationZ": 31.578187759543788,
      "group": "EarsWolf0R",
      "faces": {
        "north": {
          "texture": "#headextra",
          "uv": [
            58.0,
            2.0,
            54.0,
            11.0
          ],
          "autoUv": false,
          "rotation": 180
        },
        "east": {
          "texture": "#headextra",
          "uv": [
            60.0,
            5.0,
            58.0,
            11.0
          ],
          "autoUv": false,
          "rotation": 180
        },
        "south": {
          "texture": "#headextra",
          "uv": [
            58.0,
            2.0,
            53.0,
            11.0
          ],
          "autoUv": false,
          "rotation": 180
        },
        "west": {
          "texture": "#headextra",
          "uv": [
            53.0,
            4.0,
            51.0,
            10.0
          ],
          "autoUv": false,
          "rotation": 180
        },
        "up": {
          "texture": "#headextra",
          "uv": [
            52.0,
            29.0,
            49.0,
            31.0
          ],
          "autoUv": false,
          "rotation": 270,
          "enabled": false
        },
        "down": {
          "texture": "#headextra",
          "uv": [
            49.0,
            14.0,
            54.0,
            6.0
          ],
          "autoUv": false,
          "rotation": 270
        }
      },
      "children": [],
      "stepParentName": "b_EarR"
    },
    {
      "name": "FluffL.014",
      "from": [
        -0.7776641088072412,
        0.7203727277425571,
        -0.8723200857639313
      ],
      "to": [
        -0.37907444553105796,
        2.255988070139523,
        0.0042633116245269775
      ],
      "rotationOrigin": [
        -0.5783692598342896,
        1.262054443359375,
        -0.43402838706970215
      ],
      "rotationX": -28.853212073180913,
      "rotationY": -40.955211037081725,
      "rotationZ": 17.246628927895934,
      "group": "EarsWolf0R",
      "faces": {
        "north": {
          "texture": "#headextra",
          "uv": [
            60.0,
            5.0,
            58.0,
            11.0
          ],
          "autoUv": false,
          "rotation": 180
        },
        "east": {
          "texture": "#headextra",
          "uv": [
            60.0,
            2.0,
            57.0,
            11.0
          ],
          "autoUv": false,
          "rotation": 180
        },
        "south": {
          "texture": "#headextra",
          "uv": [
            52.0,
            2.0,
            50.0,
            10.0
          ],
          "autoUv": false,
          "rotation": 180
        },
        "west": {
          "texture": "#headextra",
          "uv": [
            54.0,
            2.0,
            51.0,
            11.0
          ],
          "autoUv": false,
          "rotation": 180
        },
        "up": {
          "texture": "#headextra",
          "uv": [
            53.0,
            29.0,
            50.0,
            31.0
          ],
          "autoUv": false,
          "rotation": 180,
          "enabled": false
        },
        "down": {
          "texture": "#headextra",
          "uv": [
            51.0,
            14.0,
            55.0,
            6.0
          ],
          "autoUv": false
        }
      },
      "children": [],
      "stepParentName": "b_EarR"
    },
    {
      "name": "FluffL.015",
      "from": [
        -1.0050101055382612,
        -2.155709468664206,
        -0.7206963503913069
      ],
      "to": [
        0.6640852464913252,
        -0.16784170931430964,
        -0.2707515751763201
      ],
      "rotationOrigin": [
        -0.17046242952346802,
        -1.1617755889892578,
        -0.4957239627838135
      ],
      "rotationX": 112.619403375026,
      "rotationY": 79.66668444124674,
      "rotationZ": -23.341454318655725,
      "group": "EarsWolf0R",
      "faces": {
        "north": {
          "texture": "#headextra",
          "uv": [
            28.0,
            2.0,
            22.0,
            11.0
          ],
          "autoUv": false
        },
        "east": {
          "texture": "#headextra",
          "uv": [
            21.0,
            2.0,
            19.0,
            9.0
          ],
          "autoUv": false
        },
        "south": {
          "texture": "#headextra",
          "uv": [
            31.0,
            3.0,
            25.0,
            11.0
          ],
          "autoUv": false
        },
        "west": {
          "texture": "#headextra",
          "uv": [
            23.0,
            2.0,
            21.0,
            11.0
          ],
          "autoUv": false
        },
        "up": {
          "texture": "#headextra",
          "uv": [
            22.0,
            7.0,
            17.0,
            13.0
          ],
          "autoUv": false,
          "rotation": 90
        },
        "down": {
          "texture": "#headextra",
          "uv": [
            17.0,
            31.0,
            23.0,
            25.0
          ],
          "autoUv": false,
          "rotation": 90,
          "enabled": false
        }
      },
      "children": [],
      "stepParentName": "b_EarR"
    },
    {
      "name": "EarLowerL.010",
      "from": [
        -0.494484615989768,
        -2.9024932384490967,
        -0.6699016026875286
      ],
      "to": [
        0.17659849752387247,
        2.5503878593444824,
        -0.19350115234716325
      ],
      "rotationOrigin": [
        0.34135180711746216,
        -0.24782180786132812,
        -0.38199567794799805
      ],
      "rotationX": -12.65481398475413,
      "rotationY": -37.524915866077485,
      "rotationZ": -5.545439124869815,
      "group": "EarsWolf0R",
      "faces": {
        "north": {
          "texture": "#headextra",
          "uv": [
            9.0,
            3.0,
            7.0,
            11.0
          ],
          "autoUv": false
        },
        "east": {
          "texture": "#headextra",
          "uv": [
            11.0,
            1.0,
            9.0,
            9.0
          ],
          "autoUv": false,
          "rotation": 180
        },
        "south": {
          "texture": "#headextra",
          "uv": [
            9.0,
            11.0,
            7.0,
            21.0
          ],
          "autoUv": false
        },
        "west": {
          "texture": "#headextra",
          "uv": [
            11.0,
            11.0,
            9.0,
            21.0
          ],
          "autoUv": false
        },
        "up": {
          "texture": "#headextra",
          "uv": [
            11.0,
            9.0,
            9.0,
            11.0
          ],
          "autoUv": false,
          "rotation": 90
        },
        "down": {
          "texture": "#headextra",
          "uv": [
            9.0,
            23.0,
            11.0,
            21.0
          ],
          "autoUv": false,
          "rotation": 270
        }
      },
      "children": [],
      "stepParentName": "b_EarR"
    },
    {
      "name": "EarUpperL.007",
      "from": [
        -0.38568450328717163,
        2.070621371269226,
        -1.0780115751404935
      ],
      "to": [
        0.28682647050324206,
        3.11418354511261,
        -0.5687264235879632
      ],
      "rotationOrigin": [
        0.22323888540267944,
        2.512542724609375,
        -0.776085615158081
      ],
      "rotationX": 54.231162424956814,
      "rotationY": -22.49382613510985,
      "rotationZ": 31.309010004353585,
      "group": "EarsWolf0R",
      "faces": {
        "north": {
          "texture": "#headextra",
          "uv": [
            11.0,
            2.0,
            6.0,
            6.0
          ],
          "autoUv": false
        },
        "east": {
          "texture": "#headextra",
          "uv": [
            11.0,
            6.0,
            6.0,
            8.0
          ],
          "autoUv": false,
          "rotation": 90
        },
        "south": {
          "texture": "#headextra",
          "uv": [
            11.0,
            2.0,
            6.0,
            6.0
          ],
          "autoUv": false,
          "rotation": 180
        },
        "west": {
          "texture": "#headextra",
          "uv": [
            6.0,
            6.0,
            11.0,
            8.0
          ],
          "autoUv": false,
          "rotation": 90
        },
        "up": {
          "texture": "#headextra",
          "uv": [
            6.0,
            6.0,
            1.0,
            8.0
          ],
          "autoUv": false
        },
        "down": {
          "texture": "#headextra",
          "uv": [
            1.0,
            8.0,
            6.0,
            6.0
          ],
          "autoUv": false,
          "rotation": 180
        }
      },
      "children": [],
      "stepParentName": "b_EarR"
    },
    {
      "name": "EarLowerL.011",
      "from": [
        -1.6092741615258093,
        -1.7329471111297607,
        0.7138169800439982
      ],
      "to": [
        -0.9407323814491373,
        3.7199339866638184,
        1.1902174591389036
      ],
      "rotationOrigin": [
        -0.724376380443573,
        0.9217243194580078,
        1.0017229318618774
      ],
      "rotationX": -49.21382498897592,
      "rotationY": -28.54559230579459,
      "rotationZ": -26.023384445321884,
      "group": "EarsWolf0R",
      "faces": {
        "north": {
          "texture": "#headextra",
          "uv": [
            9.0,
            3.0,
            7.0,
            11.0
          ],
          "autoUv": false
        },
        "east": {
          "texture": "#headextra",
          "uv": [
            11.0,
            1.0,
            9.0,
            9.0
          ],
          "autoUv": false,
          "rotation": 180
        },
        "south": {
          "texture": "#headextra",
          "uv": [
            9.0,
            11.0,
            7.0,
            21.0
          ],
          "autoUv": false
        },
        "west": {
          "texture": "#headextra",
          "uv": [
            11.0,
            11.0,
            9.0,
            21.0
          ],
          "autoUv": false
        },
        "up": {
          "texture": "#headextra",
          "uv": [
            11.0,
            9.0,
            9.0,
            11.0
          ],
          "autoUv": false,
          "rotation": 90
        },
        "down": {
          "texture": "#headextra",
          "uv": [
            9.0,
            23.0,
            11.0,
            21.0
          ],
          "autoUv": false,
          "rotation": 270
        }
      },
      "children": [],
      "stepParentName": "b_EarR"
    }
  ],
  "groups": []
}