{
  "textureWidth": 128,
  "textureHeight": 128,
  "textures": {},
  "textureSizes": {},
  "elements": [
    {
      "name": "MeshMouthUpper",
      "from": [
        -4.058791816234589,
        0.4319983124732971,
        -0.986632166974519
      ],
      "to": [
        -1.8651003241539001,
        1.608487069606781,
        0.9866321696114795
      ],
      "rotationOrigin": [
        -2.9619460701942444,
        1.020242691040039,
        1.3184802138965779e-09
      ],
      "rotationX": 1.2375079646657286e-19,
      "rotationY": 3.535041164731952e-14,
      "rotationZ": 17.305196092481502,
      "group": "mouth_wolf0",
      "faces": {
        "north": {
          "texture": "#main",
          "uv": [
            14.0,
            20.0,
            15.0,
            22.0
          ],
          "autoUv": false
        },
        "east": {
          "texture": "#main",
          "uv": [
            15.0,
            20.0,
            19.0,
            22.0
          ],
          "autoUv": false
        },
        "south": {
          "texture": "#main",
          "uv": [
            19.0,
            20.0,
            20.0,
            22.0
          ],
          "autoUv": false
        },
        "west": {
          "texture": "#main",
          "uv": [
            15.0,
            20.0,
            19.0,
            22.0
          ],
          "autoUv": false
        },
        "up": {
          "texture": "#main",
          "uv": [
            15.0,
            15.0,
            19.0,
            20.0
          ],
          "autoUv": false,
          "rotation": 90
        },
        "down": {
          "texture": "#main",
          "uv": [
            19.0,
            26.0,
            15.0,
            22.0
          ],
          "autoUv": false,
          "rotation": 270
        }
      },
      "children": [],
      "stepParentName": "b_Head"
    },
    {
      "name": "MeshMouthLower",
      "from": [
        -3.7420596182346344,
        0.03499412536621094,
        -0.904826334443908
      ],
      "to": [
        -3.035913363099098,
        0.9302196502685547,
        0.9048263516751716
      ],
      "rotationOrigin": [
        -3.2501450181007385,
        0.4826068878173828,
        8.615631763575493e-09
      ],
      "rotationX": 7.739335567294904e-20,
      "rotationY": 3.5350381315186405e-14,
      "rotationZ": -11.069083969871766,
      "group": "mouth_wolf0",
      "faces": {
        "north": {
          "texture": "#main",
          "uv": [
            14.0,
            21.0,
            15.0,
            23.0
          ],
          "autoUv": false
        },
        "east": {
          "texture": "#main",
          "uv": [
            15.0,
            24.0,
            19.0,
            26.0
          ],
          "autoUv": false
        },
        "south": {
          "texture": "#main",
          "uv": [
            19.0,
            21.0,
            20.0,
            23.0
          ],
          "autoUv": false
        },
        "west": {
          "texture": "#main",
          "uv": [
            15.0,
            20.0,
            19.0,
            22.0
          ],
          "autoUv": false
        },
        "up": {
          "texture": "#main",
          "uv": [
            15.0,
            18.0,
            19.0,
            20.0
          ],
          "autoUv": false,
          "rotation": 90
        },
        "down": {
          "texture": "#main",
          "uv": [
            19.0,
            24.0,
            15.0,
            22.0
          ],
          "autoUv": false,
          "rotation": 270
        }
      },
      "children": [],
      "stepParentName": "b_Head"
    },
    {
      "name": "MeshMouthUpper.001",
      "from": [
        -4.172240853309631,
        0.9918755143880844,
        -0.22037930654761562
      ],
      "to": [
        -3.908804416656494,
        1.3337241560220718,
        0.22037930918457738
      ],
      "rotationOrigin": [
        -4.040522634983063,
        1.1627998352050781,
        1.3184808800303927e-09
      ],
      "rotationX": 1.2375079646657286e-19,
      "rotationY": 3.535041164731952e-14,
      "rotationZ": 17.305196092481502,
      "group": "mouth_wolf0",
      "faces": {
        "north": {
          "texture": "#main",
          "uv": [
            119.0,
            3.0,
            122.0,
            5.0
          ],
          "autoUv": false
        },
        "east": {
          "texture": "#main",
          "uv": [
            122.0,
            3.0,
            124.0,
            5.0
          ],
          "autoUv": false
        },
        "south": {
          "texture": "#main",
          "uv": [
            124.0,
            3.0,
            127.0,
            5.0
          ],
          "autoUv": false
        },
        "west": {
          "texture": "#main",
          "uv": [
            122.0,
            3.0,
            124.0,
            5.0
          ],
          "autoUv": false
        },
        "up": {
          "texture": "#main",
          "uv": [
            122.0,
            1.0,
            124.0,
            3.0
          ],
          "autoUv": false,
          "rotation": 90
        },
        "down": {
          "texture": "#main",
          "uv": [
            124.0,
            7.0,
            122.0,
            5.0
          ],
          "autoUv": false,
          "rotation": 270
        }
      },
      "children": [],
      "stepParentName": "b_Head"
    },
    {
      "name": "MeshMouthUpper.002",
      "from": [
        -4.204961657524109,
        1.1673051714897156,
        -0.3572700010466314
      ],
      "to": [
        -3.9415252208709717,
        1.3683355450630188,
        0.3572700036835932
      ],
      "rotationOrigin": [
        -4.07324343919754,
        1.2678203582763672,
        1.3184808800303927e-09
      ],
      "rotationX": 1.2375079646657286e-19,
      "rotationY": 3.535041164731952e-14,
      "rotationZ": 17.305196092481502,
      "group": "mouth_wolf0",
      "faces": {
        "north": {
          "texture": "#main",
          "uv": [
            119.0,
            3.0,
            122.0,
            5.0
          ],
          "autoUv": false
        },
        "east": {
          "texture": "#main",
          "uv": [
            122.0,
            3.0,
            124.0,
            5.0
          ],
          "autoUv": false
        },
        "south": {
          "texture": "#main",
          "uv": [
            124.0,
            3.0,
            127.0,
            5.0
          ],
          "autoUv": false
        },
        "west": {
          "texture": "#main",
          "uv": [
            122.0,
            3.0,
            124.0,
            5.0
          ],
          "autoUv": false
        },
        "up": {
          "texture": "#main",
          "uv": [
            122.0,
            1.0,
            124.0,
            3.0
          ],
          "autoUv": false,
          "rotation": 90
        },
        "down": {
          "texture": "#main",
          "uv": [
            124.0,
            7.0,
            122.0,
            5.0
          ],
          "autoUv": false,
          "rotation": 270
        }
      },
      "children": [],
      "stepParentName": "b_Head"
    },
    {
      "name": "MeshMouthUpper.003",
      "from": [
        -3.98324616253376,
        0.508676839992404,
        -0.2609882937597968
      ],
      "to": [
        -3.6196458786726,
        0.5624405611306429,
        0.26098829639675836
      ],
      "rotationOrigin": [
        -3.80144602060318,
        0.5355587005615234,
        1.3184807690080902e-09
      ],
      "rotationX": 1.2375079646657286e-19,
      "rotationY": 3.535041164731952e-14,
      "rotationZ": 17.305196092481502,
      "group": "mouth_wolf0",
      "faces": {
        "north": {
          "texture": "#main",
          "uv": [
            119.0,
            3.0,
            122.0,
            5.0
          ],
          "autoUv": false
        },
        "east": {
          "texture": "#main",
          "uv": [
            122.0,
            3.0,
            124.0,
            5.0
          ],
          "autoUv": false
        },
        "south": {
          "texture": "#main",
          "uv": [
            124.0,
            3.0,
            127.0,
            5.0
          ],
          "autoUv": false
        },
        "west": {
          "texture": "#main",
          "uv": [
            122.0,
            3.0,
            124.0,
            5.0
          ],
          "autoUv": false
        },
        "up": {
          "texture": "#main",
          "uv": [
            122.0,
            1.0,
            124.0,
            3.0
          ],
          "autoUv": false,
          "rotation": 90
        },
        "down": {
          "texture": "#main",
          "uv": [
            124.0,
            7.0,
            122.0,
            5.0
          ],
          "autoUv": false,
          "rotation": 270
        }
      },
      "children": [],
      "stepParentName": "b_Head"
    }
  ],
  "groups": []
}