{
  "textureWidth": 128,
  "textureHeight": 128,
  "textures": {},
  "textureSizes": {},
  "elements": [
    {
      "name": "MouthAnimu0",
      "from": [
        -3.225657284259796,
        0.5839214324951172,
        -0.28187480941414833
      ],
      "to": [
        -3.12565728276968,
        0.7059674337506294,
        0.3002445362508297
      ],
      "rotationOrigin": [
        -3.225657284259796,
        0.5839214324951172,
        0.009184863418340683
      ],
      "group": "mouth_animu0",
      "faces": {
        "north": {
          "texture": "#main",
          "uv": [
            118.0,
            5.0,
            119.0,
            6.0
          ],
          "autoUv": false
        },
        "east": {
          "texture": "#main",
          "uv": [
            123.0,
            5.0,
            126.0,
            6.0
          ],
          "autoUv": false
        },
        "south": {
          "texture": "#main",
          "uv": [
            122.0,
            5.0,
            123.0,
            6.0
          ],
          "autoUv": false
        },
        "west": {
          "texture": "#main",
          "uv": [
            119.0,
            5.0,
            122.0,
            6.0
          ],
          "autoUv": false
        },
        "up": {
          "texture": "#main",
          "uv": [
            119.0,
            4.0,
            122.0,
            5.0
          ],
          "autoUv": false,
          "rotation": 90
        },
        "down": {
          "texture": "#main",
          "uv": [
            122.0,
            7.0,
            119.0,
            6.0
          ],
          "autoUv": false,
          "rotation": 90
        }
      },
      "children": [],
      "stepParentName": "b_Head"
    },
    {
      "name": "MouthAnimu0L",
      "from": [
        -3.200528919696808,
        0.5818823017179966,
        -0.4780066907405853
      ],
      "to": [
        -3.1005289182066917,
        0.7039282917976379,
        0.1041126549243927
      ],
      "rotationOrigin": [
        -3.200528919696808,
        0.5778141021728516,
        0.1041126549243927
      ],
      "group": "mouth_animu0",
      "faces": {
        "north": {
          "texture": "#main",
          "uv": [
            118.0,
            2.0,
            119.0,
            3.0
          ],
          "autoUv": false
        },
        "east": {
          "texture": "#main",
          "uv": [
            123.0,
            2.0,
            126.0,
            3.0
          ],
          "autoUv": false
        },
        "south": {
          "texture": "#main",
          "uv": [
            122.0,
            2.0,
            123.0,
            3.0
          ],
          "autoUv": false
        },
        "west": {
          "texture": "#main",
          "uv": [
            119.0,
            2.0,
            122.0,
            3.0
          ],
          "autoUv": false
        },
        "up": {
          "texture": "#main",
          "uv": [
            119.0,
            1.0,
            122.0,
            2.0
          ],
          "autoUv": false,
          "rotation": 90
        },
        "down": {
          "texture": "#main",
          "uv": [
            122.0,
            4.0,
            119.0,
            3.0
          ],
          "autoUv": false,
          "rotation": 90
        }
      },
      "children": [],
      "stepParentName": "b_Head"
    },
    {
      "name": "MouthAnimu0R",
      "from": [
        -3.200528919696808,
        0.5818962575867772,
        -0.0034398771822452545
      ],
      "to": [
        -3.1005289182066917,
        0.7043609172105789,
        0.46234213933348656
      ],
      "rotationOrigin": [
        -3.200528919696808,
        0.5778141021728516,
        -0.0034398771822452545
      ],
      "rotationX": 1.9999999845072665,
      "group": "mouth_animu0",
      "faces": {
        "north": {
          "texture": "#main",
          "uv": [
            118.0,
            2.0,
            119.0,
            3.0
          ],
          "autoUv": false
        },
        "east": {
          "texture": "#main",
          "uv": [
            123.0,
            2.0,
            126.0,
            3.0
          ],
          "autoUv": false
        },
        "south": {
          "texture": "#main",
          "uv": [
            122.0,
            2.0,
            123.0,
            3.0
          ],
          "autoUv": false
        },
        "west": {
          "texture": "#main",
          "uv": [
            119.0,
            2.0,
            122.0,
            3.0
          ],
          "autoUv": false
        },
        "up": {
          "texture": "#main",
          "uv": [
            119.0,
            1.0,
            122.0,
            2.0
          ],
          "autoUv": false,
          "rotation": 90
        },
        "down": {
          "texture": "#main",
          "uv": [
            122.0,
            4.0,
            119.0,
            3.0
          ],
          "autoUv": false,
          "rotation": 90
        }
      },
      "children": [],
      "stepParentName": "b_Head"
    }
  ],
  "groups": []
}